adder_test_results.txt
Passed 1 + 1 = 2 | A=3c00 B=3c00 Got=4000 Exp=4000
Passed (-3) + 2 = -1 | A=c200 B=4000 Got=bc00 Exp=bc00
Passed +0 + +0 | A=0000 B=0000 Got=0000 Exp=0000
Passed +0 + -0 | A=0000 B=8000 Got=0000 Exp=0000
Passed +x + 0 | A=3c00 B=0000 Got=3c00 Exp=3c00
Passed +Inf + finite | A=7c00 B=3c00 Got=7c00 Exp=7c00
Passed +Inf + +Inf | A=7c00 B=7c00 Got=7c00 Exp=7c00
Passed -Inf + -Inf | A=fc00 B=fc00 Got=fc00 Exp=fc00
Failed Test for +Inf + -Inf = NaN: A=7c00 B=fc00 Got=0000 Exp=7d00
Failed Test for NaN + 1 = NaN: A=7d00 B=3c00 Got=7c00 Exp=7d00
Passed subnormal + 1 ≈ 1 | A=0001 B=3c00 Got=3c00 Exp=3c00
Failed Test for subnormal + subnormal: A=0001 B=0001 Got=5c00 Exp=0000
Passed large_x + subnormal ≈ large_x | A=4000 B=0001 Got=4000 Exp=4000
Passed overflow: max + max = +Inf | A=7bff B=7bff Got=7c00 Exp=7c00
Passed overflow: -max + -max = -Inf | A=fbff B=fbff Got=fc00 Exp=fc00
Passed +x + (-x) = +0 | A=4200 B=c200 Got=0000 Exp=0000
Passed +a + +b = + | A=4000 B=4000 Got=4400 Exp=4400
Passed -a + -b = - | A=c000 B=c000 Got=c400 Exp=c400
Opened random_cases.csv for reading.
Pass: A=eb43  B=5335  SUB=0 → eb26
Pass: A=06ca  B=ddc5  SUB=0 → ddc5
Pass: A=a807  B=7bd9  SUB=0 → 7bd9
Pass: A=3389  B=835b  SUB=0 → 3389
Pass: A=0623  B=1416  SUB=0 → 1478
Pass: A=19d9  B=c32d  SUB=0 → c32c
Fail: A=fd23  B=1517  SUB=0 → Got=fc00  Exp=ff23
Fail: A=c168  B=35b5  SUB=0 → Got=c0b2  Exp=c0b1
Pass: A=9ea3  B=4e5e  SUB=0 → 4e5e
Pass: A=54b6  B=09e4  SUB=0 → 54b6
Pass: A=6d9f  B=b537  SUB=0 → 6d9f
Pass: A=c26e  B=17ad  SUB=0 → c26d
Pass: A=c221  B=092a  SUB=0 → c221
Pass: A=ddba  B=341a  SUB=0 → ddb9
Pass: A=2713  B=0a37  SUB=0 → 271f
Fail: A=90b8  B=317e  SUB=0 → Got=317a  Exp=3179
Fail: A=aa27  B=0322  SUB=0 → Got=aa26  Exp=aa25
Pass: A=5fe9  B=df35  SUB=0 → 51a0
Pass: A=caf5  B=6be3  SUB=0 → 6bdc
Pass: A=81e2  B=c016  SUB=0 → c016
Pass: A=6b5b  B=d89c  SUB=0 → 6b11
Pass: A=74da  B=aaae  SUB=0 → 74da
Fail: A=2da9  B=c496  SUB=0 → Got=c480  Exp=c47f
Pass: A=b124  B=75b8  SUB=0 → 75b8
Pass: A=a093  B=e2b1  SUB=0 → e2b1
Pass: A=bbea  B=9a34  SUB=0 → bbf0
Pass: A=6b7e  B=e73a  SUB=0 → 67c2
Pass: A=a8be  B=3bcc  SUB=0 → 3b80
Fail: A=a1b8  B=fc12  SUB=0 → Got=fc00  Exp=fe12
Pass: A=be87  B=afea  SUB=0 → bf06
Pass: A=f560  B=eb97  SUB=0 → f653
Pass: A=b49b  B=03cd  SUB=0 → b49b
Pass: A=04a7  B=c6b5  SUB=0 → c6b5
Pass: A=41cc  B=3ea2  SUB=0 → 448e
Pass: A=d83b  B=7650  SUB=0 → 7648
Pass: A=8e5b  B=332c  SUB=0 → 3329
Pass: A=018d  B=445a  SUB=0 → 445a
Pass: A=089c  B=5c57  SUB=0 → 5c57
Pass: A=9ee3  B=86a5  SUB=0 → 9efe
Fail: A=d479  B=ff41  SUB=0 → Got=fc00  Exp=ff41
Pass: A=d046  B=f92e  SUB=0 → f92f
Pass: A=f101  B=1e13  SUB=0 → f101
Pass: A=4c2d  B=6fbb  SUB=0 → 6fbf
Pass: A=5294  B=9b25  SUB=0 → 5294
Pass: A=6ad0  B=30bb  SUB=0 → 6ad0
Pass: A=ab68  B=ad65  SUB=0 → b08c
Pass: A=cdde  B=6e39  SUB=0 → 6e33
Pass: A=209e  B=f915  SUB=0 → f915
Pass: A=485d  B=e062  SUB=0 → e051
Pass: A=1a8f  B=852c  SUB=0 → 1a66
Pass: A=2008  B=f99a  SUB=0 → f99a
Pass: A=3017  B=129c  SUB=0 → 301e
Fail: A=5c16  B=7e93  SUB=0 → Got=7c00  Exp=7e93
Fail: A=6ada  B=772a  SUB=0 → Got=7802  Exp=7803
Pass: A=e684  B=314a  SUB=0 → e684
Fail: A=7ffb  B=4a2d  SUB=0 → Got=7c00  Exp=7ffb
Pass: A=8759  B=e471  SUB=0 → e471
Pass: A=ca9d  B=f934  SUB=0 → f934
Pass: A=8ee8  B=ac40  SUB=0 → ac47
Pass: A=e497  B=2df7  SUB=0 → e497
Pass: A=93a1  B=7668  SUB=0 → 7668
Pass: A=b1bd  B=428c  SUB=0 → 4230
Pass: A=f9d0  B=b12e  SUB=0 → f9d0
Pass: A=e658  B=e57b  SUB=0 → e9ea
Pass: A=8c8e  B=40f4  SUB=0 → 40f4
Pass: A=3aba  B=f6cb  SUB=0 → f6cb
Pass: A=d3a5  B=d070  SUB=0 → d60a
Pass: A=c904  B=c678  SUB=0 → cc20
Pass: A=1559  B=499a  SUB=0 → 499a
Pass: A=3d92  B=ac75  SUB=0 → 3d4b
Pass: A=06b1  B=7be7  SUB=0 → 7be7
Pass: A=13d2  B=b87d  SUB=0 → b87b
Pass: A=956c  B=1c53  SUB=0 → 19f0
Pass: A=1605  B=e75e  SUB=0 → e75e
Pass: A=88bc  B=c73f  SUB=0 → c73f
Pass: A=43fd  B=301f  SUB=0 → 441f
Pass: A=b95e  B=31e1  SUB=0 → b7cc
Pass: A=445f  B=cd7b  SUB=0 → cc63
Pass: A=1fce  B=e256  SUB=0 → e256
Pass: A=631a  B=5436  SUB=0 → 63a1
Pass: A=f2f0  B=4e2b  SUB=0 → f2ed
Pass: A=41fb  B=e1e9  SUB=0 → e1e3
Fail: A=bce9  B=6b14  SUB=0 → Got=6b14  Exp=6b13
Pass: A=7a64  B=9103  SUB=0 → 7a64
Pass: A=233c  B=dd3c  SUB=0 → dd3c
Pass: A=d854  B=3b7a  SUB=0 → d84d
Pass: A=21d0  B=b63b  SUB=0 → b60c
Pass: A=69b9  B=2031  SUB=0 → 69b9
Pass: A=769f  B=033f  SUB=0 → 769f
Pass: A=c985  B=03f8  SUB=0 → c985
Pass: A=3a93  B=ef8e  SUB=0 → ef8e
Pass: A=eb28  B=93a1  SUB=0 → eb28
Pass: A=6ad9  B=8b80  SUB=0 → 6ad9
Fail: A=ddf7  B=fd6e  SUB=0 → Got=fc00  Exp=ff6e
Pass: A=d6f4  B=a61c  SUB=0 → d6f4
Fail: A=f888  B=cc50  SUB=0 → Got=f888  Exp=f889
Pass: A=f774  B=e1c2  SUB=0 → f7a2
Pass: A=0b6f  B=646a  SUB=0 → 646a
Fail: A=7cd0  B=3daf  SUB=0 → Got=7c00  Exp=7ed0
Pass: A=44da  B=15a9  SUB=0 → 44da
Pass: A=96e8  B=1772  SUB=0 → 0850
Pass: A=58fa  B=2365  SUB=0 → 58fa
Fail: A=f94e  B=cd49  SUB=0 → Got=f94e  Exp=f94f
Pass: A=7652  B=047b  SUB=0 → 7652
Pass: A=5f92  B=0fef  SUB=0 → 5f92
Pass: A=bac3  B=ed3d  SUB=0 → ed3d
Pass: A=564c  B=6180  SUB=0 → 624a
Pass: A=2e07  B=e17a  SUB=0 → e17a
Pass: A=c98e  B=8c5c  SUB=0 → c98e
Pass: A=c897  B=91e3  SUB=0 → c897
Fail: A=2a95  B=8152  SUB=0 → Got=2a95  Exp=2a94
Pass: A=4661  B=5241  SUB=0 → 530d
Pass: A=085f  B=605f  SUB=0 → 605f
Fail: A=f41a  B=fd6f  SUB=0 → Got=fc00  Exp=ff6f
Fail: A=7d58  B=b449  SUB=0 → Got=7c00  Exp=7f58
Pass: A=eaeb  B=a100  SUB=0 → eaeb
Pass: A=87d0  B=788b  SUB=0 → 788b
Pass: A=4ed8  B=2545  SUB=0 → 4ed9
Pass: A=afcb  B=81b2  SUB=0 → afcb
Pass: A=d503  B=d306  SUB=0 → d843
Pass: A=cf1a  B=c3ed  SUB=0 → d00c
Pass: A=401c  B=0149  SUB=0 → 401c
Pass: A=e2fe  B=33fa  SUB=0 → e2fe
Pass: A=296b  B=cb82  SUB=0 → cb7d
Pass: A=c05f  B=d9b3  SUB=0 → d9c4
Pass: A=d401  B=08b2  SUB=0 → d401
Fail: A=7bc3  B=fe31  SUB=0 → Got=f89f  Exp=fe31
Pass: A=9878  B=2dcd  SUB=0 → 2da9
Pass: A=d51d  B=fb3d  SUB=0 → fb40
Pass: A=5e96  B=83f8  SUB=0 → 5e96
Fail: A=fb26  B=7d15  SUB=0 → Got=7608  Exp=7f15
Pass: A=a146  B=bb8a  SUB=0 → bb9f
Pass: A=7411  B=fba5  SUB=0 → f99c
Pass: A=c0c0  B=7a70  SUB=0 → 7a70
Pass: A=4acf  B=2863  SUB=0 → 4ad3
Fail: A=7d45  B=cf1f  SUB=0 → Got=7c00  Exp=7f45
Pass: A=2890  B=c1b0  SUB=0 → c19e
Pass: A=63da  B=9f03  SUB=0 → 63da
Pass: A=a705  B=c504  SUB=0 → c50b
Pass: A=57ee  B=5f4f  SUB=0 → 60a5
Pass: A=5e6e  B=44d4  SUB=0 → 5e81
Pass: A=f4f7  B=937b  SUB=0 → f4f7
Pass: A=ce55  B=3cec  SUB=0 → ce06
Pass: A=9029  B=e669  SUB=0 → e669
Pass: A=a55c  B=4436  SUB=0 → 4431
Pass: A=f131  B=8f42  SUB=0 → f131
Pass: A=c732  B=5023  SUB=0 → 4e7a
Fail: A=7cb0  B=9720  SUB=0 → Got=7c00  Exp=7eb0
Pass: A=2566  B=9c1f  SUB=0 → 245e
Fail: A=fa55  B=fcd2  SUB=0 → Got=fc00  Exp=fed2
Pass: A=4e35  B=1851  SUB=0 → 4e35
Pass: A=5bf2  B=7603  SUB=0 → 7613
Pass: A=af1b  B=db11  SUB=0 → db12
Pass: A=ad83  B=ba1e  SUB=0 → bace
Fail: A=87ab  B=7cb7  SUB=0 → Got=7c00  Exp=7eb7
Pass: A=94a2  B=b673  SUB=0 → b678
Pass: A=e7cc  B=77ff  SUB=0 → 7782
Pass: A=a38c  B=3125  SUB=0 → 30ac
Pass: A=07c4  B=4266  SUB=0 → 4266
Fail: A=3e88  B=7d92  SUB=0 → Got=7c00  Exp=7f92
Pass: A=738c  B=c367  SUB=0 → 738c
Pass: A=a5e2  B=7456  SUB=0 → 7456
Pass: A=3f29  B=c895  SUB=0 → c760
Fail: A=1d19  B=432a  SUB=0 → Got=432c  Exp=432d
Pass: A=0bb9  B=3a5f  SUB=0 → 3a5f
Pass: A=15da  B=1c36  SUB=0 → 1dac
Pass: A=1fe5  B=abad  SUB=0 → aab0
Pass: A=78a2  B=2bb8  SUB=0 → 78a2
Pass: A=4167  B=4a1e  SUB=0 → 4b78
Pass: A=2574  B=13ba  SUB=0 → 25b2
Pass: A=1ab4  B=d4cd  SUB=0 → d4cd
Pass: A=d36b  B=8cc6  SUB=0 → d36b
Pass: A=70dd  B=80b1  SUB=0 → 70dd
Pass: A=8051  B=ca69  SUB=0 → ca69
Pass: A=eb1d  B=2488  SUB=0 → eb1d
Pass: A=4447  B=a9b2  SUB=0 → 443c
Pass: A=1232  B=e3e3  SUB=0 → e3e3
Pass: A=9f29  B=1935  SUB=0 → 9c8e
Pass: A=6e0f  B=8b2b  SUB=0 → 6e0f
Pass: A=b22f  B=bd78  SUB=0 → be3e
Pass: A=38b6  B=f999  SUB=0 → f999
Pass: A=aedb  B=3b41  SUB=0 → 3a66
Pass: A=6243  B=f0e2  SUB=0 → f07e
Pass: A=3c96  B=d3ed  SUB=0 → d3c8
Pass: A=5391  B=ae1e  SUB=0 → 538e
Pass: A=d547  B=2905  SUB=0 → d546
Pass: A=001a  B=c074  SUB=0 → c074
Pass: A=ab90  B=41b4  SUB=0 → 4196
Fail: A=9fee  B=83c5  SUB=0 → Got=9ff6  Exp=9ffd
Pass: A=e9f7  B=a938  SUB=0 → e9f7
Pass: A=347d  B=258e  SUB=0 → 34d6
Pass: A=f1b6  B=c75f  SUB=0 → f1b7
Pass: A=564c  B=66eb  SUB=0 → 6750
Pass: A=8f88  B=65ba  SUB=0 → 65ba
Fail: A=566e  B=7e4d  SUB=0 → Got=7c00  Exp=7e4d
Pass: A=1884  B=1e1e  SUB=0 → 2030
Pass: A=559f  B=a02b  SUB=0 → 559f
Fail: A=5405  B=e32c  SUB=0 → Got=e2ac  Exp=e2ab
Pass: A=b75a  B=9cce  SUB=0 → b76d
Pass: A=2ff0  B=6c75  SUB=0 → 6c75
Fail: A=dd16  B=7f67  SUB=0 → Got=7c00  Exp=7f67
Pass: A=8fd3  B=bc6c  SUB=0 → bc6c
Pass: A=ad28  B=0588  SUB=0 → ad27
Pass: A=93f1  B=1c2c  SUB=0 → 1a5c
Pass: A=19ef  B=e609  SUB=0 → e609
Pass: A=628d  B=a751  SUB=0 → 628d
Pass: A=7411  B=8b34  SUB=0 → 7411
Pass: A=c639  B=7300  SUB=0 → 72ff
Pass: A=9002  B=cc2f  SUB=0 → cc2f
Pass: A=aeca  B=f70a  SUB=0 → f70a
Pass: A=1347  B=73e5  SUB=0 → 73e5
Pass: A=662e  B=87f4  SUB=0 → 662e
Fail: A=e965  B=4b88  SUB=0 → Got=e95e  Exp=e95d
Pass: A=6204  B=7ace  SUB=0 → 7ae6
Fail: A=7e8a  B=8e55  SUB=0 → Got=7c00  Exp=7e8a
Pass: A=5208  B=957b  SUB=0 → 5208
Pass: A=d96a  B=4b65  SUB=0 → d8f4
Fail: A=00f7  B=1182  SUB=0 → Got=1191  Exp=11a1
Pass: A=a2cd  B=b8b0  SUB=0 → b8cb
Fail: A=58f9  B=b29f  SUB=0 → Got=58f8  Exp=58f7
Pass: A=6935  B=0721  SUB=0 → 6935
Pass: A=50f3  B=87b7  SUB=0 → 50f3
Pass: A=79cc  B=375e  SUB=0 → 79cc
Pass: A=1ff4  B=73a6  SUB=0 → 73a6
Pass: A=bd22  B=3d30  SUB=0 → 2300
Pass: A=fbdc  B=4a4c  SUB=0 → fbdc
Pass: A=bf26  B=c35a  SUB=0 → c576
Pass: A=4a05  B=3da2  SUB=0 → 4ab9
Pass: A=aaa3  B=6434  SUB=0 → 6434
Pass: A=6b8d  B=20a1  SUB=0 → 6b8d
Fail: A=03db  B=9a2c  SUB=0 → Got=9a1d  Exp=9a0d
Pass: A=32ed  B=bf5a  SUB=0 → be7c
Pass: A=a5fa  B=cb68  SUB=0 → cb6b
Pass: A=7bb0  B=25f4  SUB=0 → 7bb0
Pass: A=0453  B=bf06  SUB=0 → bf06
Pass: A=da15  B=2bb1  SUB=0 → da15
Fail: A=35f6  B=7d38  SUB=0 → Got=7c00  Exp=7f38
Pass: A=627e  B=59d4  SUB=0 → 63f3
Pass: A=0a0e  B=0896  SUB=0 → 0d52
Fail: A=de80  B=b14e  SUB=0 → Got=de80  Exp=de81
Pass: A=92d2  B=a7f0  SUB=0 → a813
Pass: A=37ac  B=983f  SUB=0 → 37a4
Pass: A=9ba6  B=709b  SUB=0 → 709b
Pass: A=26be  B=a7f1  SUB=0 → 9ccc
Pass: A=7b63  B=8dbb  SUB=0 → 7b63
Pass: A=8d24  B=0ef2  SUB=0 → 0738
Pass: A=b93a  B=20ee  SUB=0 → b926
Pass: A=6404  B=0f4f  SUB=0 → 6404
Pass: A=4e49  B=d8eb  SUB=0 → d822
Fail: A=7f1d  B=083d  SUB=0 → Got=7c00  Exp=7f1d
Pass: A=daea  B=35dd  SUB=0 → dae7
Pass: A=1978  B=9823  SUB=0 → 1154
Pass: A=8712  B=32c3  SUB=0 → 32c2
Pass: A=3c82  B=3c55  SUB=0 → 406c
Pass: A=8a90  B=10c0  SUB=0 → 0e38
Pass: A=2856  B=0f74  SUB=0 → 2865
Pass: A=9f49  B=277f  SUB=0 → 25ad
Fail: A=3695  B=d803  SUB=0 → Got=d400  Exp=d7ff
Pass: A=5458  B=afff  SUB=0 → 5456
Pass: A=1733  B=61d2  SUB=0 → 61d2
Pass: A=364f  B=1962  SUB=0 → 365a
Pass: A=8351  B=53f6  SUB=0 → 53f6
Pass: A=5127  B=3d4b  SUB=0 → 5151
Pass: A=d5af  B=53f4  SUB=0 → ced4
Pass: A=a68e  B=807c  SUB=0 → a68e
Pass: A=0799  B=9acb  SUB=0 → 9a8e
Pass: A=69de  B=e386  SUB=0 → 67f9
Pass: A=c5d2  B=acbf  SUB=0 → c5e5
Fail: A=dd28  B=fe47  SUB=0 → Got=fc00  Exp=fe47
Pass: A=e5fb  B=c40c  SUB=0 → e5ff
Pass: A=d2a7  B=47cb  SUB=0 → d1ae
Pass: A=a22e  B=97f9  SUB=0 → a32d
Pass: A=0a99  B=259f  SUB=0 → 25ac
Pass: A=cd05  B=4bd5  SUB=0 → c46a
Pass: A=8662  B=b1d3  SUB=0 → b1d4
Pass: A=77a2  B=13a2  SUB=0 → 77a2
Pass: A=1a62  B=c43f  SUB=0 → c43e
Pass: A=dd96  B=6b82  SUB=0 → 6acf
Pass: A=e964  B=5ea6  SUB=0 → e88f
Pass: A=9544  B=0cb0  SUB=0 → 9418
Pass: A=44dc  B=ac04  SUB=0 → 44cc
Pass: A=282d  B=2a28  SUB=0 → 2d2a
Pass: A=9ce2  B=2417  SUB=0 → 21bd
Pass: A=b260  B=8dcf  SUB=0 → b263
Pass: A=73ff  B=af31  SUB=0 → 73ff
Pass: A=de1b  B=dccb  SUB=0 → e173
Fail: A=d428  B=a91e  SUB=0 → Got=d428  Exp=d429
Pass: A=12a2  B=f640  SUB=0 → f640
Pass: A=8da9  B=ee33  SUB=0 → ee33
Pass: A=b1ec  B=f378  SUB=0 → f378
Pass: A=1939  B=da7b  SUB=0 → da7b
Pass: A=8410  B=9b16  SUB=0 → 9b36
Fail: A=830e  B=1ee5  SUB=0 → Got=1edf  Exp=1ed9
Fail: A=5562  B=fe53  SUB=0 → Got=fc00  Exp=fe53
Pass: A=62a6  B=2e3a  SUB=0 → 62a6
Pass: A=e308  B=cd75  SUB=0 → e334
Pass: A=cfe1  B=2120  SUB=0 → cfe0
Pass: A=be35  B=1512  SUB=0 → be34
Pass: A=8129  B=c1ae  SUB=0 → c1ae
Pass: A=0131  B=322e  SUB=0 → 322e
Pass: A=6e8b  B=0a56  SUB=0 → 6e8b
Pass: A=62ec  B=2ceb  SUB=0 → 62ec
Pass: A=636a  B=9df9  SUB=0 → 636a
Pass: A=b0fe  B=162f  SUB=0 → b0f2
Pass: A=b2c1  B=fb84  SUB=0 → fb84
Pass: A=1755  B=1d34  SUB=0 → 1f09
Pass: A=7044  B=f698  SUB=0 → f476
Pass: A=1cd7  B=56df  SUB=0 → 56df
Pass: A=50df  B=53ca  SUB=0 → 5654
Pass: A=9900  B=39e8  SUB=0 → 39e3
Pass: A=4485  B=70eb  SUB=0 → 70ec
Pass: A=90d2  B=a2bb  SUB=0 → a308
Pass: A=8c6e  B=27f0  SUB=0 → 27de
Pass: A=2f83  B=158f  SUB=0 → 2f99
Pass: A=8355  B=f390  SUB=0 → f390
Pass: A=7405  B=f8f4  SUB=0 → f5e3
Pass: A=8d3d  B=78f9  SUB=0 → 78f9
Pass: A=db07  B=652a  SUB=0 → 6449
Pass: A=7399  B=33eb  SUB=0 → 7399
Pass: A=b006  B=06a2  SUB=0 → b005
Pass: A=f43f  B=f395  SUB=0 → f805
Pass: A=1c33  B=a473  SUB=0 → a2cc
Pass: A=b641  B=b42b  SUB=0 → b936
Pass: A=eff8  B=c7b9  SUB=0 → effa
Pass: A=6bbf  B=64b2  SUB=0 → 6d0c
Fail: A=ffc2  B=4f33  SUB=0 → Got=fc00  Exp=ffc2
Pass: A=7209  B=28e9  SUB=0 → 7209
Pass: A=1056  B=d0d8  SUB=0 → d0d8
Pass: A=3d6c  B=c841  SUB=0 → c727
Pass: A=35ea  B=7008  SUB=0 → 7008
Pass: A=8690  B=bd40  SUB=0 → bd40
Pass: A=9dcb  B=e809  SUB=0 → e809
Pass: A=d1a4  B=7790  SUB=0 → 778d
Pass: A=6a8f  B=4bde  SUB=0 → 6a97
Pass: A=6dd3  B=8fc3  SUB=0 → 6dd3
Pass: A=3940  B=b408  SUB=0 → 3678
Pass: A=6437  B=93f7  SUB=0 → 6437
Pass: A=ec76  B=4b53  SUB=0 → ec72
Fail: A=fc93  B=070d  SUB=0 → Got=fc00  Exp=fe93
Pass: A=9059  B=765d  SUB=0 → 765d
Fail: A=6615  B=7e90  SUB=0 → Got=7c00  Exp=7e90
Pass: A=43ac  B=aa6e  SUB=0 → 4392
Pass: A=86b9  B=c424  SUB=0 → c424
Pass: A=eba1  B=8e85  SUB=0 → eba1
Pass: A=93e7  B=ea4f  SUB=0 → ea4f
Pass: A=16e0  B=5543  SUB=0 → 5543
Pass: A=90b2  B=8674  SUB=0 → 9180
Pass: A=7704  B=475c  SUB=0 → 7704
Fail: A=2241  B=c92f  SUB=0 → Got=c92e  Exp=c92d
Pass: A=d3fa  B=f99d  SUB=0 → f99f
Pass: A=8668  B=9cf2  SUB=0 → 9d0c
Pass: A=2c56  B=4795  SUB=0 → 47a6
Pass: A=14bb  B=d69b  SUB=0 → d69b
Pass: A=ac51  B=fb35  SUB=0 → fb35
Pass: A=18d0  B=4621  SUB=0 → 4622
Pass: A=5620  B=97a4  SUB=0 → 5620
Fail: A=4618  B=7e2e  SUB=0 → Got=7c00  Exp=7e2e
Pass: A=396e  B=cd61  SUB=0 → cd36
Fail: A=01e5  B=2634  SUB=0 → Got=2635  Exp=2636
Pass: A=1a69  B=1bbf  SUB=0 → 1f14
Pass: A=ed95  B=1e8c  SUB=0 → ed95
Pass: A=687b  B=c157  SUB=0 → 687a
Pass: A=1b6d  B=c34e  SUB=0 → c34c
Pass: A=3e9f  B=a15e  SUB=0 → 3e94
Pass: A=f12d  B=4f97  SUB=0 → f129
Fail: A=8436  B=b1c0  SUB=0 → Got=b1c0  Exp=b1c1
Pass: A=d44e  B=96b8  SUB=0 → d44e
Fail: A=8873  B=7c24  SUB=0 → Got=7c00  Exp=7e24
Pass: A=ec06  B=4890  SUB=0 → ec04
Pass: A=43b4  B=bebd  SUB=0 → 4056
Pass: A=c2ab  B=cb90  SUB=0 → cc9d
Pass: A=1b61  B=f31e  SUB=0 → f31e
Pass: A=94ef  B=5917  SUB=0 → 5917
Fail: A=7cc9  B=35f8  SUB=0 → Got=7c00  Exp=7ec9
Pass: A=8f92  B=8c35  SUB=0 → 91e4
Fail: A=a140  B=fdd7  SUB=0 → Got=fc00  Exp=ffd7
Pass: A=2bd5  B=8e84  SUB=0 → 2bc8
Pass: A=d4ef  B=e857  SUB=0 → e87e
Pass: A=697b  B=6bdd  SUB=0 → 6eac
Pass: A=e0ab  B=8804  SUB=0 → e0ab
Pass: A=6bdb  B=d15d  SUB=0 → 6bc6
Pass: A=1cb9  B=d9d6  SUB=0 → d9d6
Pass: A=cc5e  B=ef39  SUB=0 → ef3d
Fail: A=abc8  B=a0c5  SUB=0 → Got=ac7c  Exp=ac7d
Fail: A=18f9  B=7c37  SUB=0 → Got=7c00  Exp=7e37
Pass: A=5424  B=e198  SUB=0 → e114
Pass: A=a2bf  B=f078  SUB=0 → f078
Pass: A=27a0  B=6a94  SUB=0 → 6a94
Pass: A=538b  B=37fb  SUB=0 → 539b
Pass: A=df55  B=1125  SUB=0 → df55
Pass: A=5fd3  B=e1ef  SUB=0 → dc0b
Pass: A=e7fb  B=d9ee  SUB=0 → e85c
Pass: A=1230  B=606c  SUB=0 → 606c
Pass: A=844f  B=12d1  SUB=0 → 1247
Pass: A=52b4  B=dbd9  SUB=0 → da2c
Fail: A=3e59  B=9b1e  SUB=0 → Got=3e56  Exp=3e55
Pass: A=a253  B=b2af  SUB=0 → b314
Pass: A=199e  B=e5da  SUB=0 → e5da
Pass: A=7369  B=a109  SUB=0 → 7369
Pass: A=c543  B=5e50  SUB=0 → 5e3b
Pass: A=73df  B=c6da  SUB=0 → 73de
Pass: A=f0c2  B=a53e  SUB=0 → f0c2
Fail: A=fed1  B=d847  SUB=0 → Got=fc00  Exp=fed1
Pass: A=0318  B=4eba  SUB=0 → 4eba
Pass: A=b099  B=79ce  SUB=0 → 79ce
Pass: A=58ef  B=c30b  SUB=0 → 58d3
Pass: A=9cef  B=5ac4  SUB=0 → 5ac4
Pass: A=a8f8  B=e714  SUB=0 → e714
Pass: A=680f  B=22fd  SUB=0 → 680f
Pass: A=2ffc  B=6bfe  SUB=0 → 6bfe
Pass: A=2876  B=f2cc  SUB=0 → f2cc
Pass: A=aa94  B=2229  SUB=0 → a90a
Pass: A=1741  B=43d3  SUB=0 → 43d4
Pass: A=5f09  B=743b  SUB=0 → 7457
Fail: A=8870  B=b566  SUB=0 → Got=b566  Exp=b567
Pass: A=2fcb  B=5e26  SUB=0 → 5e26
Pass: A=7afb  B=dd13  SUB=0 → 7af1
Pass: A=21f8  B=5d59  SUB=0 → 5d59
Fail: A=397c  B=0d99  SUB=0 → Got=397c  Exp=397d
Pass: A=b278  B=3080  SUB=0 → abe0
Pass: A=3677  B=dde2  SUB=0 → dde0
Fail: A=7f18  B=586a  SUB=0 → Got=7c00  Exp=7f18
Pass: A=0d7f  B=c16f  SUB=0 → c16f
Pass: A=0a6a  B=53a2  SUB=0 → 53a2
Pass: A=b9fe  B=eeda  SUB=0 → eeda
Pass: A=83ef  B=4645  SUB=0 → 4645
Pass: A=a9a2  B=3b5a  SUB=0 → 3b00
Pass: A=3143  B=0503  SUB=0 → 3144
Pass: A=08cb  B=53b1  SUB=0 → 53b1
Pass: A=ac16  B=cf00  SUB=0 → cf04
Pass: A=6dc2  B=7b6e  SUB=0 → 7c00
Pass: A=4684  B=9e1a  SUB=0 → 4682
Fail: A=077c  B=7f32  SUB=0 → Got=7c00  Exp=7f32
Pass: A=43dc  B=afcb  SUB=0 → 439e
Pass: A=bda5  B=b175  SUB=0 → be54
Pass: A=eacf  B=c52f  SUB=0 → ead2
Pass: A=1e8c  B=7b76  SUB=0 → 7b76
Fail: A=5a98  B=7b00  SUB=0 → Got=7b06  Exp=7b07
Pass: A=1194  B=9572  SUB=0 → 9150
Pass: A=4f87  B=066a  SUB=0 → 4f87
Pass: A=7878  B=f5c6  SUB=0 → 7254
Fail: A=282d  B=91e2  SUB=0 → Got=2816  Exp=2815
Pass: A=e04e  B=2b7c  SUB=0 → e04e
Pass: A=8eb3  B=ba64  SUB=0 → ba65
Pass: A=4936  B=b205  SUB=0 → 491e
Pass: A=8bef  B=0983  SUB=0 → 84d8
Pass: A=c4b7  B=25fa  SUB=0 → c4b1
Pass: A=0ffc  B=e056  SUB=0 → e056
Pass: A=f157  B=448a  SUB=0 → f156
Pass: A=328d  B=c386  SUB=0 → c31d
Pass: A=0cf7  B=c953  SUB=0 → c953
Pass: A=16e5  B=7a56  SUB=0 → 7a56
Pass: A=6e6e  B=28d5  SUB=0 → 6e6e
Pass: A=1c9c  B=5991  SUB=0 → 5991
Pass: A=d112  B=2663  SUB=0 → d111
Pass: A=651b  B=6ce0  SUB=0 → 6e27
Pass: A=3ea9  B=4a4e  SUB=0 → 4b23
Pass: A=62a4  B=97e1  SUB=0 → 62a4
Pass: A=dc11  B=b8f6  SUB=0 → dc13
Pass: A=b391  B=aa4f  SUB=0 → b492
Pass: A=090e  B=b111  SUB=0 → b110
Pass: A=6228  B=6053  SUB=0 → 653e
Pass: A=7226  B=f059  SUB=0 → 6b34
Fail: A=bdae  B=fc79  SUB=0 → Got=fc00  Exp=fe79
Fail: A=34e0  B=63c0  SUB=0 → Got=63c0  Exp=63c1
Pass: A=3998  B=bffd  SUB=0 → bd31
Pass: A=c5f3  B=2675  SUB=0 → c5ed
Pass: A=e5cc  B=f394  SUB=0 → f427
Pass: A=1ab6  B=55c7  SUB=0 → 55c7
Pass: A=47ca  B=2932  SUB=0 → 47d4
Pass: A=4a5e  B=f01a  SUB=0 → f018
Pass: A=f92c  B=8add  SUB=0 → f92c
Pass: A=c4c8  B=0faa  SUB=0 → c4c8
Fail: A=fdf8  B=b686  SUB=0 → Got=fc00  Exp=fff8
Pass: A=3746  B=9477  SUB=0 → 3742
Pass: A=3669  B=e9a8  SUB=0 → e9a8
Pass: A=c58e  B=abff  SUB=0 → c59e
Pass: A=60d2  B=854a  SUB=0 → 60d2
Pass: A=8a43  B=dc6f  SUB=0 → dc6f
Pass: A=3737  B=d405  SUB=0 → d3fc
Pass: A=8756  B=ce57  SUB=0 → ce57
Pass: A=e5e1  B=512a  SUB=0 → e5b8
Pass: A=63d1  B=87d6  SUB=0 → 63d1
Pass: A=0a58  B=2876  SUB=0 → 287c
Pass: A=19cc  B=9649  SUB=0 → 154f
Pass: A=6c2a  B=53d0  SUB=0 → 6c3a
Pass: A=fa3b  B=2ab5  SUB=0 → fa3b
Pass: A=f1cb  B=35ce  SUB=0 → f1cb
Pass: A=b5e4  B=3f22  SUB=0 → 3da9
Pass: A=9823  B=3650  SUB=0 → 3648
Pass: A=5577  B=beb6  SUB=0 → 555c
Pass: A=df03  B=b3c1  SUB=0 → df04
Pass: A=19cb  B=79ef  SUB=0 → 79ef
Fail: A=015e  B=7e8e  SUB=0 → Got=7c00  Exp=7e8e
Pass: A=b965  B=f57b  SUB=0 → f57b
Fail: A=ec18  B=fed1  SUB=0 → Got=fc00  Exp=fed1
Pass: A=43b6  B=fab0  SUB=0 → fab0
Fail: A=86c7  B=2f5d  SUB=0 → Got=2f5c  Exp=2f5b
Pass: A=6626  B=0e34  SUB=0 → 6626
