systolic_array_utils/waves/add_bf16_waves.vcd
$version Generated by VerilatedVcd $end
$timescale 1ps $end
 $scope module $rootio $end
 $upscope $end
 $scope module add_bf16_tb $end
  $var wire 32 m CLK_PERIOD [31:0] $end
  $var wire 1 k tb_clk $end
  $var wire 1 # tb_nrst $end
  $var wire 32 $ i [31:0] $end
  $var wire 16 % tb_a [15:0] $end
  $var wire 16 & tb_b [15:0] $end
  $var wire 1 ' tb_start $end
  $var wire 16 P tb_result [15:0] $end
  $var wire 1 n tb_done $end
  $var wire 1 o tb_overflow $end
  $var wire 1 Q tb_underflow $end
  $var wire 1 > tb_invalid $end
  $var wire 16 ( test_set1[0] [15:0] $end
  $var wire 16 ) test_set1[1] [15:0] $end
  $var wire 16 * test_set1[2] [15:0] $end
  $var wire 16 + test_set1[3] [15:0] $end
  $var wire 16 , test_set1[4] [15:0] $end
  $var wire 16 - test_set1[5] [15:0] $end
  $var wire 16 . test_set1[6] [15:0] $end
  $var wire 16 / test_set1[7] [15:0] $end
  $var wire 16 0 test_set1[8] [15:0] $end
  $var wire 16 1 test_set1[9] [15:0] $end
  $var wire 16 2 test_set2[0] [15:0] $end
  $var wire 16 3 test_set2[1] [15:0] $end
  $var wire 16 4 test_set2[2] [15:0] $end
  $var wire 16 5 test_set2[3] [15:0] $end
  $var wire 16 6 test_set2[4] [15:0] $end
  $var wire 16 7 test_set2[5] [15:0] $end
  $var wire 16 8 test_set2[6] [15:0] $end
  $var wire 16 9 test_set2[7] [15:0] $end
  $var wire 16 : test_set2[8] [15:0] $end
  $var wire 16 ; test_set2[9] [15:0] $end
  $var wire 16 p test_set3[0] [15:0] $end
  $var wire 16 q test_set3[1] [15:0] $end
  $var wire 16 r test_set3[2] [15:0] $end
  $var wire 16 s test_set3[3] [15:0] $end
  $var wire 16 t test_set3[4] [15:0] $end
  $var wire 16 u test_set3[5] [15:0] $end
  $var wire 16 v test_set3[6] [15:0] $end
  $var wire 16 w test_set3[7] [15:0] $end
  $var wire 16 x test_set3[8] [15:0] $end
  $var wire 16 y test_set3[9] [15:0] $end
  $scope module bob $end
   $var wire 1 k clk $end
   $var wire 1 # nRST $end
   $var wire 1 ' start $end
   $var wire 16 % bf1_in [15:0] $end
   $var wire 16 & bf2_in [15:0] $end
   $var wire 16 P bf_out [15:0] $end
   $var wire 1 o overflow $end
   $var wire 1 Q underflow $end
   $var wire 1 > invalid $end
   $var wire 1 ? is_nan1 $end
   $var wire 1 @ is_nan2 $end
   $var wire 1 A is_inf1 $end
   $var wire 1 B is_inf2 $end
   $var wire 1 l sticky_bit $end
   $var wire 8 C smaller_exponent [7:0] $end
   $var wire 8 D larger_exponent [7:0] $end
   $var wire 1 E exp_select $end
   $var wire 1 < frac_leading_bit_bf1 $end
   $var wire 1 = frac_leading_bit_bf2 $end
   $var wire 8 F exp_diff [7:0] $end
   $var wire 8 I exp_max [7:0] $end
   $var wire 10 G frac_shifted [9:0] $end
   $var wire 10 H frac_not_shifted [9:0] $end
   $var wire 1 J sign_shifted $end
   $var wire 1 K sign_not_shifted $end
   $var wire 10 L smaller_mantissa [9:0] $end
   $var wire 10 M larger_mantissa [9:0] $end
   $var wire 11 R mantissa_sum [10:0] $end
   $var wire 1 N larger_mantissa_sign $end
   $var wire 1 S result_sign $end
   $var wire 1 O signs_differ $end
   $var wire 1 T mantissa_overflow $end
   $var wire 10 U smaller_mantissa_l [9:0] $end
   $var wire 10 V larger_mantissa_l [9:0] $end
   $var wire 1 W larger_mantissa_sign_l $end
   $var wire 1 X sign_shifted_l $end
   $var wire 1 Y sign_not_shifted_l $end
   $var wire 1 Z signs_differ_l $end
   $var wire 5 [ exp_max_l [4:0] $end
   $var wire 10 \ normalized_mantissa_sum [9:0] $end
   $var wire 4 ] norm_shift [3:0] $end
   $var wire 9 ^ u_exp1 [8:0] $end
   $var wire 9 z u_exp2 [8:0] $end
   $var wire 8 _ u_shifted_amount [7:0] $end
   $var wire 9 ` u_result [8:0] $end
   $var wire 8 a exp_minus_shift_amount [7:0] $end
   $var wire 9 b round_this [8:0] $end
   $var wire 8 c exp_out [7:0] $end
   $var wire 16 { round_out [15:0] $end
   $var wire 1 d round_flag $end
   $var wire 1 e G $end
   $var wire 1 f R $end
   $var wire 10 g rounded_fraction [9:0] $end
   $scope module normalizer $end
    $var wire 13 h fraction [12:0] $end
    $var wire 13 i result [12:0] $end
    $var wire 5 j shifted_amount [4:0] $end
   $upscope $end
  $upscope $end
 $upscope $end
$enddefinitions $end


#0
0#
b00000000000000000000000000000000 $
b0000000000000000 %
b0000000000000000 &
0'
b0000000000000000 (
b0000000000000000 )
b0000000000000000 *
b0000000000000000 +
b0000000000000000 ,
b0000000000000000 -
b0000000000000000 .
b0000000000000000 /
b0000000000000000 0
b0000000000000000 1
b0000000000000000 2
b0000000000000000 3
b0000000000000000 4
b0000000000000000 5
b0000000000000000 6
b0000000000000000 7
b0000000000000000 8
b0000000000000000 9
b0000000000000000 :
b0000000000000000 ;
0<
0=
0>
0?
0@
0A
0B
b00000000 C
b00000000 D
1E
b00000000 F
b0000000000 G
b0000000000 H
b00000000 I
0J
0K
b0000000000 L
b0000000000 M
0N
0O
b0000000000000000 P
1Q
b00000000000 R
0S
0T
b0000000000 U
b0000000000 V
0W
0X
0Y
0Z
b00000 [
b0000000000 \
b0000 ]
b000000000 ^
b00000000 _
b000000000 `
b00000000 a
b000000000 b
b00000000 c
0d
0e
0f
b0000000000 g
b0000000000000 h
b0000000000000 i
b00000 j
0k
0l
b00000000000000000000000000000001 m
0n
0o
b0000000000000000 p
b0000000000000000 q
b0000000000000000 r
b0000000000000000 s
b0000000000000000 t
b0000000000000000 u
b0000000000000000 v
b0000000000000000 w
b0000000000000000 x
b0000000000000000 y
b000000000 z
b0000000000000000 {
#500
1k
#1000
1#
b0011111111000000 (
b0111111101111111 )
b0110010000000000 *
b0100001000000000 +
b0111000000000000 ,
b0011111110000000 -
b1111111101111111 .
b0100000100000000 /
b1100000000000000 0
b0000000010000000 1
b0100000001000000 2
b0111111100000000 3
b0011111110000000 4
b0011111100000000 5
b0011000000000000 6
b1011111110000000 7
b1111111101111111 8
b0100000100000000 9
b0011111110000000 :
b0000000010000000 ;
0k
#1500
b0011111111000000 %
b0100000001000000 &
1'
1<
1=
b01111111 C
b10000000 D
0E
b00000001 F
b1100000000 H
b10000000 I
b1100000000 M
b1111010000000000 P
0Q
b01100000000 R
b1100000000 V
b0011 ]
b00000011 _
b111111101 `
b11111101 a
b11111101 c
b0001100000000 h
b1100000000000 i
b00011 j
1k
#2000
0k
#2500
0'
1k
#3000
0k
#3500
1k
#4000
0k
#4500
b00000000000000000000000000000001 $
b0111111101111111 %
b0111111100000000 &
1'
b11111110 C
b11111110 D
1E
b00000000 F
b1000000000 G
b1111111100 H
b11111110 I
b1000000000 L
b1111111100 M
b0111110001000000 P
b10111111100 R
1T
b1000000000 U
b1111111100 V
b11110 [
b1111000000 \
b0100 ]
b000011110 ^
b00000100 _
b000011010 `
b00011010 a
b011111110 b
b00011111 c
1d
1e
b0001000000 g
b0000111111100 h
b1111111000000 i
b00100 j
1k
#5000
0k
#5500
0'
1k
#6000
0k
#6500
1k
#7000
0k
#7500
b00000000000000000000000000000010 $
b0110010000000000 %
b0011111110000000 &
1'
b01111111 C
b11001000 D
b01001001 F
b0000000000 G
b1000000000 H
b11001000 I
b0000000000 L
b1000000000 M
b0001010000000000 P
b01000000000 R
0T
b0000000000 U
b1000000000 V
b01000 [
b0000000000 \
b0011 ]
b000001000 ^
b00000011 _
b000000101 `
b00000101 a
b000000000 b
b00000101 c
0d
0e
b0000000000 g
b0001000000000 h
b1000000000000 i
b00011 j
1k
1l
#8000
0k
#8500
0'
1k
#9000
0k
#9500
1k
#10000
0k
#10500
b00000000000000000000000000000011 $
b0100001000000000 %
b0011111100000000 &
1'
b01111110 C
b10000100 D
b00000110 F
b0000001000 G
b10000100 I
b0000001000 L
b0000010000010000 P
b01000001000 R
b0000001000 U
b00100 [
b0001000000 \
b000000100 ^
b000000001 `
b00000001 a
b001000000 b
b00000001 c
b0000010000 g
b0001000001000 h
b1000001000000 i
1k
0l
#11000
0k
#11500
0'
1k
#12000
0k
#12500
1k
#13000
0k
#13500
b00000000000000000000000000000100 $
b0111000000000000 %
b0011000000000000 &
1'
b01100000 C
b11100000 D
b10000000 F
b1000000000 G
b11100000 I
b1000000000 L
b0000010000000000 P
1Q
b10000000000 R
1T
b1000000000 U
b00000 [
b0000000000 \
b0000 ]
b000000000 ^
b00000000 _
b000000000 `
b00000000 a
b000000000 b
b0000000000 g
b0000000000000 h
b0000000000000 i
b00000 j
1k
1l
#14000
0k
#14500
0'
1k
#15000
0k
#15500
1k
#16000
0k
#16500
b00000000000000000000000000000101 $
b0011111110000000 %
b1011111110000000 &
1'
b01111111 C
b01111111 D
b00000000 F
b01111111 I
1J
1O
b0111110000000000 P
0Q
b00000000000 R
0T
1X
1Z
b11111 [
b000011111 ^
b000011111 `
b00011111 a
b00011111 c
1k
0l
#17000
0k
#17500
0'
1k
#18000
0k
#18500
1k
#19000
0k
#19500
b00000000000000000000000000000110 $
b1111111101111111 %
b1111111101111111 &
1'
b11111110 C
b11111110 D
b1111111100 G
b1111111100 H
b11111110 I
1K
b1111111100 L
b1111111100 M
1N
0O
b0111110001111111 P
b11111111000 R
1S
1T
b1111111100 U
b1111111100 V
1W
1Y
0Z
b11110 [
b1111000000 \
b0011 ]
b000011110 ^
b00000011 _
b000011011 `
b00011011 a
b111111100 b
b0001111111 g
b0001111111000 h
b1111111000000 i
b00011 j
1k
#20000
0k
#20500
0'
1k
#21000
0k
#21500
1k
#22000
0k
#22500
b00000000000000000000000000000111 $
b0100000100000000 %
b0100000100000000 &
1'
b10000010 C
b10000010 D
b1000000000 G
b1000000000 H
b10000010 I
0J
0K
b1000000000 L
b1000000000 M
0N
b0000110000000000 P
b10000000000 R
0S
b1000000000 U
b1000000000 V
0W
0X
0Y
b00010 [
b0000000000 \
b0000 ]
b000000010 ^
b00000000 _
b000000010 `
b00000010 a
b000000000 b
b00000011 c
b0000000000 g
b0000000000000 h
b0000000000000 i
b00000 j
1k
#23000
0k
#23500
0'
1k
#24000
0k
#24500
1k
#25000
0k
#25500
b00000000000000000000000000001000 $
b1100000000000000 %
b0011111110000000 &
1'
b01111111 C
b10000000 D
b00000001 F
b0000000000 G
b10000000 I
1K
b0000000000 L
1N
1O
b1111010000000000 P
b01000000000 R
1S
0T
b0000000000 U
1W
1Y
1Z
b00000 [
b0011 ]
b000000000 ^
b00000011 _
b111111101 `
b11111101 a
b11111101 c
b0001000000000 h
b1000000000000 i
b00011 j
1k
#26000
0k
#26500
0'
1k
#27000
0k
#27500
1k
#28000
0k
#28500
b00000000000000000000000000001001 $
b0000000010000000 %
b0000000010000000 &
1'
b00000001 C
b00000001 D
b00000000 F
b1000000000 G
b00000001 I
0K
b1000000000 L
0N
0O
b0000100000000000 P
b10000000000 R
0S
1T
b1000000000 U
0W
0Y
0Z
b00001 [
b0000 ]
b000000001 ^
b00000000 _
b000000001 `
b00000001 a
b00000010 c
b0000000000000 h
b0000000000000 i
b00000 j
1k
#29000
0k
#29500
0'
1k
#30000
0k
#30500
1k
#31000
0k
#31500
b00000000000000000000000000001010 $
1k
