waves/add_fp16_waves.vcd
$version Generated by VerilatedVcd $end
$timescale 1ps $end
 $scope module $rootio $end
 $upscope $end
 $scope module add_fp16_tb_individual $end
  $var wire 32 q CLK_PERIOD [31:0] $end
  $var wire 1 p tb_clk $end
  $var wire 1 # tb_nrst $end
  $var wire 32 $ i [31:0] $end
  $var wire 16 % tb_a [15:0] $end
  $var wire 16 & tb_b [15:0] $end
  $var wire 1 ' tb_start $end
  $var wire 16 U tb_result [15:0] $end
  $var wire 1 r tb_done $end
  $var wire 16 ( test_set1[0] [15:0] $end
  $var wire 16 ) test_set1[1] [15:0] $end
  $var wire 16 * test_set1[2] [15:0] $end
  $var wire 16 + test_set1[3] [15:0] $end
  $var wire 16 , test_set1[4] [15:0] $end
  $var wire 16 - test_set1[5] [15:0] $end
  $var wire 16 . test_set1[6] [15:0] $end
  $var wire 16 / test_set1[7] [15:0] $end
  $var wire 16 0 test_set1[8] [15:0] $end
  $var wire 16 1 test_set1[9] [15:0] $end
  $var wire 16 2 test_set2[0] [15:0] $end
  $var wire 16 3 test_set2[1] [15:0] $end
  $var wire 16 4 test_set2[2] [15:0] $end
  $var wire 16 5 test_set2[3] [15:0] $end
  $var wire 16 6 test_set2[4] [15:0] $end
  $var wire 16 7 test_set2[5] [15:0] $end
  $var wire 16 8 test_set2[6] [15:0] $end
  $var wire 16 9 test_set2[7] [15:0] $end
  $var wire 16 : test_set2[8] [15:0] $end
  $var wire 16 ; test_set2[9] [15:0] $end
  $var wire 16 < test_set3[0] [15:0] $end
  $var wire 16 = test_set3[1] [15:0] $end
  $var wire 16 > test_set3[2] [15:0] $end
  $var wire 16 ? test_set3[3] [15:0] $end
  $var wire 16 @ test_set3[4] [15:0] $end
  $var wire 16 A test_set3[5] [15:0] $end
  $var wire 16 B test_set3[6] [15:0] $end
  $var wire 16 C test_set3[7] [15:0] $end
  $var wire 16 D test_set3[8] [15:0] $end
  $var wire 16 E test_set3[9] [15:0] $end
  $scope module bob $end
   $var wire 1 p clk $end
   $var wire 1 # nRST $end
   $var wire 1 ' start $end
   $var wire 16 % fp1_in [15:0] $end
   $var wire 16 & fp2_in [15:0] $end
   $var wire 16 U fp_out [15:0] $end
   $var wire 5 H smaller_exponent [4:0] $end
   $var wire 5 I larger_exponent [4:0] $end
   $var wire 1 J exp_select $end
   $var wire 1 F frac_leading_bit_fp1 $end
   $var wire 1 G frac_leading_bit_fp2 $end
   $var wire 5 K exp_diff [4:0] $end
   $var wire 5 N exp_max [4:0] $end
   $var wire 13 L frac_shifted [12:0] $end
   $var wire 13 M frac_not_shifted [12:0] $end
   $var wire 1 O sign_shifted $end
   $var wire 1 P sign_not_shifted $end
   $var wire 13 Q smaller_mantissa [12:0] $end
   $var wire 13 R larger_mantissa [12:0] $end
   $var wire 14 V mantissa_sum [13:0] $end
   $var wire 1 S larger_mantissa_sign $end
   $var wire 1 W result_sign $end
   $var wire 1 T signs_differ $end
   $var wire 1 X mantissa_overflow $end
   $var wire 13 Y smaller_mantissa_l [12:0] $end
   $var wire 13 Z larger_mantissa_l [12:0] $end
   $var wire 1 [ larger_mantissa_sign_l $end
   $var wire 1 \ sign_shifted_l $end
   $var wire 1 ] sign_not_shifted_l $end
   $var wire 1 ^ signs_differ_l $end
   $var wire 5 _ exp_max_l [4:0] $end
   $var wire 13 ` normalized_mantissa_sum [12:0] $end
   $var wire 4 a norm_shift [3:0] $end
   $var wire 6 b u_exp1 [5:0] $end
   $var wire 6 s u_exp2 [5:0] $end
   $var wire 5 c u_shifted_amount [4:0] $end
   $var wire 6 d u_result [5:0] $end
   $var wire 5 e exp_minus_shift_amount [4:0] $end
   $var wire 12 f round_this [11:0] $end
   $var wire 6 g exp_out [5:0] $end
   $var wire 16 t round_out [15:0] $end
   $var wire 1 h round_flag $end
   $var wire 1 i G $end
   $var wire 1 j R $end
   $var wire 10 k rounded_fraction [9:0] $end
   $var wire 1 l overflow $end
   $var wire 1 u zero $end
   $var wire 5 m exp_out_final [4:0] $end
   $var wire 10 n rounded_fraction_final [9:0] $end
   $scope module normalizer $end
    $var wire 13 o fraction [12:0] $end
    $var wire 13 ` result [12:0] $end
    $var wire 4 a shifted_amount [3:0] $end
   $upscope $end
  $upscope $end
 $upscope $end
$enddefinitions $end


#0
0#
b00000000000000000000000000000000 $
b0000000000000000 %
b0000000000000000 &
0'
b0000000000000000 (
b0000000000000000 )
b0000000000000000 *
b0000000000000000 +
b0000000000000000 ,
b0000000000000000 -
b0000000000000000 .
b0000000000000000 /
b0000000000000000 0
b0000000000000000 1
b0000000000000000 2
b0000000000000000 3
b0000000000000000 4
b0000000000000000 5
b0000000000000000 6
b0000000000000000 7
b0000000000000000 8
b0000000000000000 9
b0000000000000000 :
b0000000000000000 ;
b0000000000000000 <
b0000000000000000 =
b0000000000000000 >
b0000000000000000 ?
b0000000000000000 @
b0000000000000000 A
b0000000000000000 B
b0000000000000000 C
b0000000000000000 D
b0000000000000000 E
0F
0G
b00000 H
b00000 I
1J
b00000 K
b0000000000000 L
b0000000000000 M
b00000 N
0O
0P
b0000000000000 Q
b0000000000000 R
0S
0T
b0000000000000000 U
b00000000000000 V
0W
0X
b0000000000000 Y
b0000000000000 Z
0[
0\
0]
0^
b00000 _
b0000000000000 `
b0000 a
b000000 b
b00000 c
b000000 d
b00000 e
b000000000000 f
b000000 g
0h
0i
0j
b0000000000 k
0l
b00000 m
b0000000000 n
b0000000000000 o
0p
b00000000000000000000000000000001 q
0r
b000000 s
b0000000000000000 t
0u
#500
1p
#1000
1#
b0111101111111111 (
b0011001110100000 )
b1100111000000000 *
b0100100100110000 +
b1100010111000000 ,
b0100000000010000 -
b1100011010100000 .
b0100001000000101 /
b0100011100100000 0
b1100000000010000 1
b0111101111111111 2
b1100000000010000 3
b1100100100110000 4
b0100010111000000 5
b0100011010100000 6
b1011111000000000 7
b1100010111000000 8
b0100100100110000 9
b1011001110100000 :
b0100001111111010 ;
b0100100011001001 <
b0011110011110000 =
b0100000011011101 >
b0100100010101100 ?
b0100011111111101 @
b0011111000101100 A
b0100011101101111 B
b0100011110101000 C
b0011110110111010 D
b0100001110001000 E
0p
#1500
b0111101111111111 %
b0111101111111111 &
1'
1F
1G
b11110 H
b11110 I
b1111111111100 L
b1111111111100 M
b11110 N
b1111111111100 Q
b1111111111100 R
b0111110000000000 U
b11111111111000 V
1X
b1111111111100 Y
b1111111111100 Z
b11110 _
b1111111111000 `
b011110 b
b011110 d
b11110 e
b111111111100 f
b011111 g
b1111111111 k
1l
b11111 m
b1111111111000 o
1p
#2000
0p
#2500
b00000000000000000000000000000001 $
b0011001110100000 %
b1100000000010000 &
b01100 H
b10000 I
0J
b00100 K
b0000111101000 L
b1000001000000 M
b10000 N
1P
b0000111101000 Q
b1000001000000 R
1S
1T
b1011111100101100 U
b00111001011000 V
1W
0X
b0000111101000 Y
b1000001000000 Z
1[
1]
1^
b10000 _
b1110010110000 `
b0001 a
b010000 b
b00001 c
b001111 d
b01111 e
b110010110000 f
b001111 g
b1100101100 k
0l
b01111 m
b1100101100 n
b0111001011000 o
1p
#3000
0p
#3500
b00000000000000000000000000000010 $
b1100111000000000 %
b1100100100110000 &
b10010 H
b10011 I
1J
b00001 K
b0101001100000 L
b1100000000000 M
b10011 N
1O
b0101001100000 Q
b1100000000000 R
0T
b1101000001001100 U
b10001001100000 V
1X
b0101001100000 Y
b1100000000000 Z
1\
0^
b10011 _
b1001100000000 `
b0011 a
b010011 b
b00011 c
b010000 d
b10000 e
b000100110000 f
b010100 g
b0001001100 k
b10100 m
b0001001100 n
b0001001100000 o
1p
#4000
0p
#4500
b00000000000000000000000000000011 $
b0100100100110000 %
b0100010111000000 &
b10001 H
b10010 I
b0101110000000 L
b1010011000000 M
b10010 N
0O
0P
b0101110000000 Q
b1010011000000 R
0S
b0100110000001000 U
b10000001000000 V
0W
b0101110000000 Y
b1010011000000 Z
0[
0\
0]
b10010 _
b1000000000000 `
b0110 a
b010010 b
b00110 c
b001100 d
b01100 e
b000000100000 f
b010011 g
b0000001000 k
b10011 m
b0000001000 n
b0000001000000 o
1p
#5000
0p
#5500
b00000000000000000000000000000100 $
b1100010111000000 %
b0100011010100000 &
b10001 I
b00000 K
b1101010000000 L
b1011100000000 M
b10001 N
1P
b1011100000000 Q
b1101010000000 R
1T
b0011101100000000 U
b00001110000000 V
0X
b1011100000000 Y
b1101010000000 Z
1]
1^
b10001 _
b1110000000000 `
b0011 a
b010001 b
b00011 c
b001110 d
b01110 e
b110000000000 f
b001110 g
b1100000000 k
b01110 m
b1100000000 n
b0001110000000 o
1p
#6000
0p
#6500
b00000000000000000000000000000101 $
b0100000000010000 %
b1011111000000000 &
b01111 H
b10000 I
b00001 K
b0110000000000 L
b1000001000000 M
b10000 N
1O
0P
b0110000000000 Q
b1000001000000 R
b0011100001000000 U
b00010001000000 V
b0110000000000 Y
b1000001000000 Z
1\
0]
b10000 _
b1000100000000 `
b0010 a
b010000 b
b00010 c
b000100000000 f
b0001000000 k
b0001000000 n
b0010001000000 o
1p
#7000
0p
#7500
b00000000000000000000000000000110 $
b1100011010100000 %
b1100010111000000 &
b10001 H
b10001 I
b00000 K
b1011100000000 L
b1101010000000 M
b10001 N
1P
b1011100000000 Q
b1101010000000 R
1S
0T
b1100101000110000 U
b11000110000000 V
1W
1X
b1011100000000 Y
b1101010000000 Z
1[
1]
0^
b10001 _
b1000110000000 `
b0000 a
b010001 b
b00000 c
b010001 d
b10001 e
b100011000000 f
b010010 g
b1000110000 k
b10010 m
b1000110000 n
b1000110000000 o
1p
#8000
0p
#8500
b00000000000000000000000000000111 $
b0100001000000101 %
b0100100100110000 &
b10000 H
b10010 I
0J
b00010 K
b0011000000101 L
b1010011000000 M
b10010 N
0O
0P
b0011000000101 Q
b1010011000000 R
0S
b0100101010110001 U
b01101011000101 V
0W
0X
b0011000000101 Y
b1010011000000 Z
0[
0\
0]
b10010 _
b1101011000101 `
b010010 b
b010010 d
b10010 e
b101011000101 f
1j
b1010110001 k
b1010110001 n
b1101011000101 o
1p
#9000
0p
#9500
b00000000000000000000000000001000 $
b0100011100100000 %
b1011001110100000 &
b01100 H
b10001 I
1J
b00101 K
b0000011110100 L
b1110010000000 M
b10001 N
1O
b0000011110100 Q
b1110010000000 R
1T
b0100011011100011 U
b01101110001100 V
b0000011110100 Y
b1110010000000 Z
1\
1^
b10001 _
b1101110001100 `
b010001 b
b010001 d
b10001 e
b101110001100 f
b010001 g
0j
b1011100011 k
b10001 m
b1011100011 n
b1101110001100 o
1p
#10000
0p
#10500
b00000000000000000000000000001001 $
b1100000000010000 %
b0100001111111010 &
b10000 H
b10000 I
b00000 K
b1111111101000 L
b1000001000000 M
b10000 N
0O
1P
b1000001000000 Q
b1111111101000 R
b0011111111010100 U
b00111110101000 V
b1000001000000 Y
b1111111101000 Z
0\
1]
b10000 _
b1111101010000 `
b0001 a
b010000 b
b00001 c
b001111 d
b01111 e
b111101010000 f
b001111 g
b1111010100 k
b01111 m
b1111010100 n
b0111110101000 o
1p
#11000
0p
#11500
b00000000000000000000000000001010 $
0'
1p
