waves/wallacetree_8b_waves.vcd
$version Generated by VerilatedVcd $end
$timescale 1ps $end
 $scope module $rootio $end
 $upscope $end
 $scope module wallacetree_11b_mini_tb $end
  $var wire 11 # tb_a [10:0] $end
  $var wire 11 $ tb_b [10:0] $end
  $var wire 13 ) tb_out [12:0] $end
  $var wire 22 * tb_debug_output [21:0] $end
  $var wire 22 % golden_out [21:0] $end
  $var wire 1 K" tb_clk $end
  $var wire 32 & i [31:0] $end
  $var wire 32 ' failed_cases [31:0] $end
  $var wire 1 + tb_ovf $end
  $var wire 1 , tb_roundloss $end
  $var wire 32 L" SEED [31:0] $end
  $var wire 32 M" NUM_TESTS [31:0] $end
  $scope module trash_heap $end
   $var wire 32 N" NUM_BITS [31:0] $end
   $var wire 11 # a [10:0] $end
   $var wire 11 $ b [10:0] $end
   $var wire 13 ) result [12:0] $end
   $var wire 1 + overflow $end
   $var wire 1 , round_loss $end
   $var wire 22 * debug_output [21:0] $end
   $var wire 13 ( extended_multiplier [12:0] $end
   $var wire 18 - booth_multipliers [17:0] $end
   $var wire 78 . pprod [77:0] $end
   $var wire 19 1 level1_sums [18:0] $end
   $var wire 15 2 level1_carries [14:0] $end
   $var wire 10 3 level1_internal_carries [9:0] $end
   $var wire 23 4 level2_sums [22:0] $end
   $var wire 18 5 level2_carries [17:0] $end
   $var wire 10 6 level2_internal_carries [9:0] $end
   $var wire 24 7 add_result [23:0] $end
   $scope module c42_l1_b13 $end
    $var wire 1 O" x1 $end
    $var wire 1 8 x2 $end
    $var wire 1 9 x3 $end
    $var wire 1 : x4 $end
    $var wire 1 ; cin $end
    $var wire 1 < carry $end
    $var wire 1 = sum $end
    $var wire 1 > cout $end
    $var wire 1 8 x1_x2_xor $end
    $var wire 1 ? x3_x4_xor $end
    $var wire 1 @ all_xor $end
   $upscope $end
   $scope module c42_l1_b14 $end
    $var wire 1 O" x1 $end
    $var wire 1 A x2 $end
    $var wire 1 B x3 $end
    $var wire 1 C x4 $end
    $var wire 1 > cin $end
    $var wire 1 D carry $end
    $var wire 1 E sum $end
    $var wire 1 F cout $end
    $var wire 1 A x1_x2_xor $end
    $var wire 1 G x3_x4_xor $end
    $var wire 1 H all_xor $end
   $upscope $end
   $scope module c42_l2_b18 $end
    $var wire 1 I x1 $end
    $var wire 1 J x2 $end
    $var wire 1 K x3 $end
    $var wire 1 O" x4 $end
    $var wire 1 L cin $end
    $var wire 1 M carry $end
    $var wire 1 N sum $end
    $var wire 1 O cout $end
    $var wire 1 P x1_x2_xor $end
    $var wire 1 K x3_x4_xor $end
    $var wire 1 Q all_xor $end
   $upscope $end
   $scope module fa_l1_b15 $end
    $var wire 1 F a $end
    $var wire 1 R b $end
    $var wire 1 S cin $end
    $var wire 1 T s $end
    $var wire 1 U cout $end
   $upscope $end
   $scope module fa_l1_b4 $end
    $var wire 1 V a $end
    $var wire 1 W b $end
    $var wire 1 X cin $end
    $var wire 1 Y s $end
    $var wire 1 Z cout $end
   $upscope $end
   $scope module fa_l1_b5 $end
    $var wire 1 [ a $end
    $var wire 1 \ b $end
    $var wire 1 ] cin $end
    $var wire 1 ^ s $end
    $var wire 1 _ cout $end
   $upscope $end
   $scope module fa_l2_b19 $end
    $var wire 1 O a $end
    $var wire 1 ` b $end
    $var wire 1 a cin $end
    $var wire 1 b s $end
    $var wire 1 c cout $end
   $upscope $end
   $scope module fa_l2_b8 $end
    $var wire 1 d a $end
    $var wire 1 e b $end
    $var wire 1 f cin $end
    $var wire 1 g s $end
    $var wire 1 h cout $end
   $upscope $end
   $scope module fa_l2_b9 $end
    $var wire 1 i a $end
    $var wire 1 j b $end
    $var wire 1 k cin $end
    $var wire 1 l s $end
    $var wire 1 m cout $end
   $upscope $end
   $scope module genblk3[10] $end
    $scope module c42_l1 $end
     $var wire 1 n x1 $end
     $var wire 1 o x2 $end
     $var wire 1 p x3 $end
     $var wire 1 q x4 $end
     $var wire 1 r cin $end
     $var wire 1 s carry $end
     $var wire 1 t sum $end
     $var wire 1 u cout $end
     $var wire 1 v x1_x2_xor $end
     $var wire 1 w x3_x4_xor $end
     $var wire 1 x all_xor $end
    $upscope $end
   $upscope $end
   $scope module genblk3[11] $end
    $scope module c42_l1 $end
     $var wire 1 y x1 $end
     $var wire 1 z x2 $end
     $var wire 1 { x3 $end
     $var wire 1 | x4 $end
     $var wire 1 u cin $end
     $var wire 1 } carry $end
     $var wire 1 ~ sum $end
     $var wire 1 !! cout $end
     $var wire 1 "! x1_x2_xor $end
     $var wire 1 #! x3_x4_xor $end
     $var wire 1 $! all_xor $end
    $upscope $end
   $upscope $end
   $scope module genblk3[12] $end
    $scope module c42_l1 $end
     $var wire 1 %! x1 $end
     $var wire 1 &! x2 $end
     $var wire 1 '! x3 $end
     $var wire 1 (! x4 $end
     $var wire 1 !! cin $end
     $var wire 1 )! carry $end
     $var wire 1 *! sum $end
     $var wire 1 ; cout $end
     $var wire 1 +! x1_x2_xor $end
     $var wire 1 ,! x3_x4_xor $end
     $var wire 1 -! all_xor $end
    $upscope $end
   $upscope $end
   $scope module genblk3[6] $end
    $scope module c42_l1 $end
     $var wire 1 .! x1 $end
     $var wire 1 /! x2 $end
     $var wire 1 0! x3 $end
     $var wire 1 1! x4 $end
     $var wire 1 O" cin $end
     $var wire 1 2! carry $end
     $var wire 1 3! sum $end
     $var wire 1 4! cout $end
     $var wire 1 5! x1_x2_xor $end
     $var wire 1 6! x3_x4_xor $end
     $var wire 1 3! all_xor $end
    $upscope $end
   $upscope $end
   $scope module genblk3[7] $end
    $scope module c42_l1 $end
     $var wire 1 7! x1 $end
     $var wire 1 8! x2 $end
     $var wire 1 9! x3 $end
     $var wire 1 :! x4 $end
     $var wire 1 4! cin $end
     $var wire 1 e carry $end
     $var wire 1 ;! sum $end
     $var wire 1 <! cout $end
     $var wire 1 =! x1_x2_xor $end
     $var wire 1 >! x3_x4_xor $end
     $var wire 1 ?! all_xor $end
    $upscope $end
   $upscope $end
   $scope module genblk3[8] $end
    $scope module c42_l1 $end
     $var wire 1 @! x1 $end
     $var wire 1 A! x2 $end
     $var wire 1 B! x3 $end
     $var wire 1 C! x4 $end
     $var wire 1 <! cin $end
     $var wire 1 j carry $end
     $var wire 1 d sum $end
     $var wire 1 D! cout $end
     $var wire 1 E! x1_x2_xor $end
     $var wire 1 F! x3_x4_xor $end
     $var wire 1 G! all_xor $end
    $upscope $end
   $upscope $end
   $scope module genblk3[9] $end
    $scope module c42_l1 $end
     $var wire 1 H! x1 $end
     $var wire 1 I! x2 $end
     $var wire 1 J! x3 $end
     $var wire 1 K! x4 $end
     $var wire 1 D! cin $end
     $var wire 1 L! carry $end
     $var wire 1 i sum $end
     $var wire 1 r cout $end
     $var wire 1 M! x1_x2_xor $end
     $var wire 1 N! x3_x4_xor $end
     $var wire 1 O! all_xor $end
    $upscope $end
   $upscope $end
   $scope module genblk4[10] $end
    $scope module c42_l2 $end
     $var wire 1 P! x1 $end
     $var wire 1 Q! x2 $end
     $var wire 1 t x3 $end
     $var wire 1 L! x4 $end
     $var wire 1 O" cin $end
     $var wire 1 R! carry $end
     $var wire 1 S! sum $end
     $var wire 1 T! cout $end
     $var wire 1 U! x1_x2_xor $end
     $var wire 1 V! x3_x4_xor $end
     $var wire 1 S! all_xor $end
    $upscope $end
   $upscope $end
   $scope module genblk4[11] $end
    $scope module c42_l2 $end
     $var wire 1 W! x1 $end
     $var wire 1 X! x2 $end
     $var wire 1 ~ x3 $end
     $var wire 1 s x4 $end
     $var wire 1 T! cin $end
     $var wire 1 Y! carry $end
     $var wire 1 Z! sum $end
     $var wire 1 [! cout $end
     $var wire 1 \! x1_x2_xor $end
     $var wire 1 ]! x3_x4_xor $end
     $var wire 1 ^! all_xor $end
    $upscope $end
   $upscope $end
   $scope module genblk4[12] $end
    $scope module c42_l2 $end
     $var wire 1 _! x1 $end
     $var wire 1 `! x2 $end
     $var wire 1 *! x3 $end
     $var wire 1 } x4 $end
     $var wire 1 [! cin $end
     $var wire 1 a! carry $end
     $var wire 1 b! sum $end
     $var wire 1 c! cout $end
     $var wire 1 d! x1_x2_xor $end
     $var wire 1 e! x3_x4_xor $end
     $var wire 1 f! all_xor $end
    $upscope $end
   $upscope $end
   $scope module genblk4[13] $end
    $scope module c42_l2 $end
     $var wire 1 g! x1 $end
     $var wire 1 h! x2 $end
     $var wire 1 = x3 $end
     $var wire 1 )! x4 $end
     $var wire 1 c! cin $end
     $var wire 1 i! carry $end
     $var wire 1 j! sum $end
     $var wire 1 k! cout $end
     $var wire 1 l! x1_x2_xor $end
     $var wire 1 m! x3_x4_xor $end
     $var wire 1 n! all_xor $end
    $upscope $end
   $upscope $end
   $scope module genblk4[14] $end
    $scope module c42_l2 $end
     $var wire 1 o! x1 $end
     $var wire 1 p! x2 $end
     $var wire 1 E x3 $end
     $var wire 1 < x4 $end
     $var wire 1 k! cin $end
     $var wire 1 q! carry $end
     $var wire 1 r! sum $end
     $var wire 1 s! cout $end
     $var wire 1 t! x1_x2_xor $end
     $var wire 1 u! x3_x4_xor $end
     $var wire 1 v! all_xor $end
    $upscope $end
   $upscope $end
   $scope module genblk4[15] $end
    $scope module c42_l2 $end
     $var wire 1 w! x1 $end
     $var wire 1 x! x2 $end
     $var wire 1 T x3 $end
     $var wire 1 D x4 $end
     $var wire 1 s! cin $end
     $var wire 1 y! carry $end
     $var wire 1 z! sum $end
     $var wire 1 {! cout $end
     $var wire 1 |! x1_x2_xor $end
     $var wire 1 }! x3_x4_xor $end
     $var wire 1 ~! all_xor $end
    $upscope $end
   $upscope $end
   $scope module genblk4[16] $end
    $scope module c42_l2 $end
     $var wire 1 !" x1 $end
     $var wire 1 "" x2 $end
     $var wire 1 #" x3 $end
     $var wire 1 U x4 $end
     $var wire 1 {! cin $end
     $var wire 1 $" carry $end
     $var wire 1 %" sum $end
     $var wire 1 &" cout $end
     $var wire 1 '" x1_x2_xor $end
     $var wire 1 (" x3_x4_xor $end
     $var wire 1 )" all_xor $end
    $upscope $end
   $upscope $end
   $scope module genblk4[17] $end
    $scope module c42_l2 $end
     $var wire 1 *" x1 $end
     $var wire 1 +" x2 $end
     $var wire 1 ," x3 $end
     $var wire 1 -" x4 $end
     $var wire 1 &" cin $end
     $var wire 1 ." carry $end
     $var wire 1 /" sum $end
     $var wire 1 L cout $end
     $var wire 1 0" x1_x2_xor $end
     $var wire 1 1" x3_x4_xor $end
     $var wire 1 2" all_xor $end
    $upscope $end
   $upscope $end
   $scope module ha_l1_b16 $end
    $var wire 1 3" a $end
    $var wire 1 4" b $end
    $var wire 1 #" s $end
    $var wire 1 -" cout $end
   $upscope $end
   $scope module ha_l1_b2 $end
    $var wire 1 5" a $end
    $var wire 1 6" b $end
    $var wire 1 7" s $end
    $var wire 1 8" cout $end
   $upscope $end
   $scope module ha_l1_b3 $end
    $var wire 1 9" a $end
    $var wire 1 :" b $end
    $var wire 1 ;" s $end
    $var wire 1 <" cout $end
   $upscope $end
   $scope module ha_l2_b20 $end
    $var wire 1 =" a $end
    $var wire 1 >" b $end
    $var wire 1 ?" s $end
    $var wire 1 @" cout $end
   $upscope $end
   $scope module ha_l2_b3 $end
    $var wire 1 ;" a $end
    $var wire 1 8" b $end
    $var wire 1 A" s $end
    $var wire 1 B" cout $end
   $upscope $end
   $scope module ha_l2_b4 $end
    $var wire 1 Y a $end
    $var wire 1 <" b $end
    $var wire 1 C" s $end
    $var wire 1 D" cout $end
   $upscope $end
   $scope module ha_l2_b5 $end
    $var wire 1 ^ a $end
    $var wire 1 Z b $end
    $var wire 1 E" s $end
    $var wire 1 F" cout $end
   $upscope $end
   $scope module ha_l2_b6 $end
    $var wire 1 3! a $end
    $var wire 1 _ b $end
    $var wire 1 G" s $end
    $var wire 1 H" cout $end
   $upscope $end
   $scope module ha_l2_b7 $end
    $var wire 1 ;! a $end
    $var wire 1 2! b $end
    $var wire 1 I" s $end
    $var wire 1 J" cout $end
   $upscope $end
  $upscope $end
 $upscope $end
$enddefinitions $end


#0
b11111101010 #
b11111100110 $
b1111101000001000111100 %
b00000000000000000000000000000000 &
b00000000000000000000000000000000 '
b0111111001100 (
b0000010100010 )
b0000001010001000111100 *
0+
1,
b011111111100011100 -
b011111101010000000000000000000000000000100000010110001111110101001000000101100 .
b0010000100100111100 1
b000100100100000 2
b0010010010 3
b01111000001000000111100 4
b000100100100100000 5
b0010000000 6
b010000001010001000111100 7
18
09
0:
1;
1<
0=
0>
0?
1@
0A
0B
0C
0D
0E
0F
0G
0H
0I
1J
0K
0L
0M
1N
0O
1P
1Q
0R
0S
0T
0U
0V
1W
0X
1Y
0Z
1[
0\
0]
1^
0_
0`
1a
1b
0c
1d
1e
0f
0g
1h
0i
0j
0k
0l
0m
0n
1o
0p
0q
1r
1s
0t
0u
1v
0w
1x
0y
1z
0{
0|
0}
1~
0!!
1"!
0#!
1$!
1%!
1&!
0'!
0(!
0)!
0*!
0+!
0,!
0-!
0.!
1/!
10!
01!
02!
03!
14!
15!
16!
07!
08!
19!
0:!
0;!
0<!
0=!
1>!
1?!
0@!
1A!
0B!
0C!
0D!
1E!
0F!
1G!
0H!
1I!
1J!
0K!
0L!
1M!
1N!
0O!
0P!
0Q!
0R!
0S!
0T!
0U!
0V!
0W!
0X!
1Y!
0Z!
0[!
0\!
0]!
0^!
0_!
1`!
0a!
1b!
0c!
1d!
0e!
1f!
0g!
0h!
0i!
0j!
0k!
0l!
0m!
0n!
0o!
1p!
1q!
0r!
0s!
1t!
1u!
0v!
0w!
0x!
0y!
0z!
0{!
0|!
0}!
0~!
0!"
1""
1#"
0$"
0%"
1&"
1'"
1("
0)"
0*"
1+"
0,"
0-"
1."
0/"
10"
01"
12"
13"
04"
15"
06"
17"
08"
19"
0:"
1;"
0<"
0="
1>"
1?"
0@"
1A"
0B"
1C"
0D"
1E"
0F"
0G"
0H"
0I"
0J"
0K"
b00000000000000000000000000001010 L"
b00000000000000000000000000011110 M"
b00000000000000000000000000001011 N"
0O"
#1000
b00000000000000000000000000000001 '
1K"
#2000
b11111101000 #
b11111100100 $
b1111100110001010100000 %
b00000000000000000000000000000001 &
b0111111001000 (
b0000001100010 )
b0000000110001010100000 *
b011111111100010000 -
b011111101000000000000000000000000000000100000011000000111111010000000000000000 .
b0010001101010100000 1
b000000100000000 2
b0000011000 3
b01111000101001010100000 4
b000100000100000000 5
b010000000110001010100000 7
08
0;
0<
0@
0W
0Y
0[
1\
0d
0e
0h
1i
1l
0%!
1*!
1+!
1-!
0/!
00!
04!
05!
06!
18!
09!
1;!
1=!
0>!
1B!
1D!
1F!
0G!
0`!
0d!
1e!
0q!
1r!
0u!
1v!
05"
07"
09"
0;"
0A"
0C"
1I"
0K"
#3000
b00000000000000000000000000000010 '
1K"
#4000
b11111100110 #
b11111100010 $
b1111100100001100001100 %
b00000000000000000000000000000010 &
b0111111000100 (
b0000001100011 )
b0000000110001100001100 *
b011111111100001100 -
b011111100110000000000000000000000000000100000011010000111111001101000000110100 .
b0010010101011101100 1
b000000100000100 2
b0010011000 3
b01111000101001011001100 4
b000100000100000100 5
b0010010000 6
b010000000110001100001100 7
1;
1=
1V
1W
1Z
1[
0\
1%!
0*!
0+!
0-!
10!
13!
16!
1`!
1d!
0e!
1h!
1k!
1l!
1m!
0p!
0t!
0v!
15"
17"
1:"
1;"
1A"
0E"
1F"
1G"
0K"
#5000
b00000000000000000000000000000011 '
1K"
#6000
b11111100100 #
b11111100000 $
b1111100010001110000000 %
b00000000000000000000000000000011 &
b0111111000000 (
b0000000100011 )
b0000000010001110000000 *
b011111111100000000 -
b011111100100000000000000000000000000000100000011100000000000000000000000000000 .
b0010000001110000000 1
b000000000000000 2
b0000000000 3
b01111000010001110000000 4
b000100000000000000 5
b0010000000 6
b010000000010001110000000 7
0;
0=
0V
0W
0Z
0[
0^
1d
1g
0o
0r
0s
0v
0x
0z
0~
0"!
0$!
0%!
0&!
00!
03!
06!
08!
19!
0=!
1>!
0A!
0D!
0E!
1G!
0I!
0M!
1O!
0Y!
0`!
0b!
0d!
0f!
1j!
0k!
0m!
1n!
0r!
05"
07"
0:"
0;"
0A"
0F"
0G"
0K"
#7000
b00000000000000000000000000000100 '
1K"
#8000
b11111100010 #
b11111011110 $
b1111100000001111111100 %
b00000000000000000000000000000100 &
b0111110111100 (
b0011000100011 )
b0001100010001111111100 *
b011111110011111100 -
b011111100010000000000000001100000011110011111100010000000000000001000000111100 .
b1101100101111111100 1
b000100100000000 2
b0010000000 3
b01101011001001111111100 4
b010000100100000000 5
b1100000000 6
b010001100010001111111100 7
19
1;
1<
1?
1@
1B
1E
1G
1H
1K
1L
1O
0Q
1R
1T
1V
1Y
1[
1^
0b
1c
1p
1q
1s
1{
1~
1#!
1$!
1%!
1'!
1+!
1,!
10!
13!
16!
09!
1:!
0B!
1C!
0J!
1K!
1Y!
1`!
1b!
1d!
1f!
0h!
0j!
0l!
0n!
1q!
1z!
1}!
1~!
0#"
1%"
0&"
0("
1)"
1,"
0."
11"
02"
03"
15"
17"
19"
1;"
1A"
1C"
1E"
1G"
0K"
#9000
b00000000000000000000000000000101 '
1K"
#10000
b11111100000 #
b11111011100 $
b1111011110010010000000 %
b00000000000000000000000000000101 &
b0111110111000 (
b0011001100100 )
b0001100110010010000000 *
b011111110011110000 -
b011111100000000000000000001100000100000011111100000011000001000000000000000000 .
b1100101010010000000 1
b010001000000000 2
b1100000000 3
b01101000100010010000000 4
b010010001000000000 5
b010001100110010010000000 7
18
0;
0<
1>
0@
1A
1F
0H
0T
1U
0V
0Y
0[
0^
0d
0g
0i
0l
0q
0s
1t
1w
1x
1|
1}
0~
0#!
0$!
0%!
1*!
0+!
1-!
00!
03!
06!
18!
0:!
1=!
0>!
0C!
0F!
0G!
0K!
0N!
0O!
1S!
1V!
0Y!
0`!
1a!
0b!
0d!
0f!
0q!
1r!
1u!
1v!
0z!
0}!
0~!
1$"
0%"
1("
0)"
05"
07"
09"
0;"
0A"
0C"
0E"
0G"
0K"
#11000
b00000000000000000000000000000110 '
1K"
#12000
b11111011110 #
b11111011010 $
b1111011100010100001100 %
b00000000000000000000000000000110 &
b0111110110100 (
b0011001100101 )
b0001100110010100001100 *
b011111110011101100 -
b011111011110000000000000001100000100010011111011110011000001000101000001000100 .
b1100110001000001100 1
b010001001100000 2
b1110000110 3
b01101010100000100001100 4
b010001001001000000 5
b1100110000 6
b010001100110010100001100 7
1;
1=
1e
1g
1i
1j
1m
0p
0t
0w
0x
1%!
0*!
1+!
0-!
1.!
10!
14!
15!
16!
19!
1:!
0;!
1<!
1B!
1F!
1G!
1J!
1N!
1O!
0S!
0V!
1`!
1d!
1e!
1h!
1k!
1l!
1m!
1p!
1s!
1t!
0v!
1x!
1y!
1|!
1~!
0""
0$"
1%"
0'"
1)"
15"
17"
1:"
1;"
1A"
0I"
0K"
#13000
b00000000000000000000000000000111 '
1K"
#14000
b11111011100 #
b11111011000 $
b1111011010010110100000 %
b00000000000000000000000000000111 &
b0111110110000 (
b0011000100101 )
b0001100010010110100000 *
b011111110011100000 -
b011111011100000000000000001100000100100011111011100010000010010000000000000000 .
b1100011000110100000 1
b010001010000000 2
b1000001000 3
b01101011000010110100000 4
b010000101000000000 5
b1100010000 6
b010001100010010110100000 7
08
0;
0>
1@
0E
1\
1^
1d
0e
0i
0j
0m
0%!
1*!
0+!
1-!
0.!
00!
04!
05!
06!
08!
0:!
1;!
0<!
0=!
1>!
1A!
1C!
1D!
1E!
0F!
1L!
1S!
1V!
0`!
0d!
0e!
1q!
0r!
0s!
0u!
1v!
0y!
1z!
05"
07"
0:"
0;"
0A"
1E"
1I"
0K"
#15000
b00000000000000000000000000001000 '
1K"
#16000
b11111011010 #
b11111010110 $
b1111011000011000111100 %
b00000000000000000000000000001000 &
b0111110101100 (
b0010110100110 )
b0001011010011000111100 *
b011111110010011100 -
b011111011010000000000000001100000100110001111101101001111101101001000001001100 .
b1100010001100111100 1
b001011001100000 2
b0111100110 3
b01101000100000000111100 4
b010001011001100000 5
b1100000000 6
b010001011010011000111100 7
18
1;
1>
0@
0A
1D
0F
1H
0R
0U
1W
1Y
0\
1]
1e
0g
1h
1i
1j
1m
1o
1p
1u
1v
1w
1z
1!!
1"!
1$!
1%!
1&!
1)!
0*!
1.!
1/!
14!
18!
1:!
0;!
1<!
1=!
0>!
0A!
0D!
0E!
0G!
1I!
0J!
0L!
1M!
0N!
0S!
0V!
1`!
1d!
1e!
0h!
1i!
0k!
0l!
0m!
0q!
1r!
1y!
0z!
1}!
0~!
0%"
0("
0)"
15"
17"
19"
1;"
1A"
1C"
0I"
0K"
#17000
b00000000000000000000000000001001 '
1K"
#18000
b11111011000 #
b11111010100 $
b1111010110011011100000 %
b00000000000000000000000000001001 &
b0111110101000 (
b0010101100110 )
b0001010110011011100000 *
b011111110010010000 -
b011111011000000000000000001100000101000001111101100000111110110000000000000000 .
b1100101001011100000 1
b000101010000000 2
b0011101000 3
b01101000100011011100000 4
b010001001000000000 5
b1100100000 6
b010001010110011011100000 7
08
1<
0=
0>
1@
0D
1E
0W
0Y
1\
0]
0d
0e
0h
0j
1l
0m
0%!
0)!
1*!
1+!
0-!
0.!
13!
04!
15!
08!
0:!
1;!
0<!
0=!
1>!
1A!
0C!
1D!
1E!
1F!
1K!
1L!
1N!
0O!
1S!
1V!
0`!
0d!
0e!
0i!
1s!
0}!
1~!
05"
07"
09"
0;"
0A"
0C"
1G"
1I"
0K"
#19000
b00000000000000000000000000001010 '
1K"
#20000
b11111010110 #
b11111010010 $
b1111010100011110001100 %
b00000000000000000000000000001010 &
b0111110100100 (
b0010101100111 )
b0001010110011110001100 *
b011111110010001100 -
b011111010110000000000000001100000101010001111101011000111110101101000001010100 .
b1100100001001101100 1
b000111010100100 2
b0011101010 3
b01101001000011101001100 4
b010000111000000100 5
b1100000000 6
b010001010110011110001100 7
1V
1W
1Z
0\
1]
1e
1g
1%!
1)!
0*!
0+!
1-!
1.!
10!
14!
05!
16!
09!
1:!
0;!
1`!
1d!
1e!
1h!
1i!
1l!
1m!
0p!
1q!
0r!
0s!
0t!
0v!
0y!
1z!
15"
17"
1:"
1;"
1A"
0E"
1F"
0I"
0K"
#21000
b00000000000000000000000000001011 '
1K"
#22000
b11111010100 #
b11111010000 $
b1111010010100001000000 %
b00000000000000000000000000001011 &
b0111110100000 (
b0010100101000 )
b0001010010100001000000 *
b011111110010000000 -
b011111010100000000000000001100000101100001111101010000000000000000000000000000 .
b1100111011001000000 1
b000001001000000 2
b0000000000 3
b01101001000010001000000 4
b010000101001000000 5
b1100010000 6
b010001010010100001000000 7
0;
0<
1=
0V
0W
0Z
0]
0^
0e
0g
1j
0l
1m
0o
1t
0u
0v
1x
0z
0!!
0"!
0$!
0%!
0&!
0)!
1*!
0.!
0/!
04!
0:!
0>!
0?!
0A!
1C!
0D!
0E!
0F!
0I!
0L!
0M!
1O!
0`!
0d!
0e!
0i!
1k!
1u!
1v!
05"
07"
0:"
0;"
0A"
0F"
0K"
#23000
b00000000000000000000000000001100 '
1K"
#24000
b11111010010 #
b11111001110 $
b1111010000100011111100 %
b00000000000000000000000000001100 &
b0111110011100 (
b0001010010100011111100 *
b011111110001111100 -
b011111010010000000000000001100000101110001111101001000000000000001000001011100 .
b1100100011011111100 1
b000101001000000 2
b0010000000 3
b01101001000010011111100 4
b1100000000 6
b010001010010100011111100 7
1;
1<
0=
1V
1Y
1]
1^
1%!
0*!
1+!
0-!
1.!
00!
15!
06!
1:!
1;!
1>!
1?!
1`!
1d!
1e!
0h!
0k!
0l!
0m!
0u!
0v!
15"
17"
19"
1;"
1A"
1C"
1E"
1I"
0K"
#25000
b00000000000000000000000000001101 '
1K"
#26000
b11111010000 #
b11111001100 $
b1111001110100111000000 %
b00000000000000000000000000001101 &
b0111110011000 (
b0010101101001 )
b0001010110100111000000 *
b011111110001110000 -
b011111010000000000000000001100000110000001111101000011000001100000000000000000 .
b1101101000111000000 1
b000001100000000 2
b1100000000 3
b01101010100100111000000 4
b010000001000000000 5
b1101000000 6
b010001010110100111000000 7
18
0;
0<
1>
0@
1A
1F
0H
1T
0V
0Y
0]
0^
1d
1g
0i
0j
0m
1q
1s
0t
0w
0x
0%!
1*!
0+!
1-!
0.!
1/!
18!
0:!
1=!
0>!
0C!
1F!
1G!
0K!
0N!
0O!
0S!
0V!
1Z!
1]!
1^!
0`!
0d!
0e!
0q!
1r!
1u!
1v!
0z!
1{!
1}!
0~!
1%"
05"
07"
09"
0;"
0A"
0C"
0E"
0K"
#27000
b00000000000000000000000000001110 '
1K"
#28000
b11111001110 #
b11111001010 $
b1111001100101010001100 %
b00000000000000000000000000001110 &
b0111110010100 (
b0010101101010 )
b0001010110101010001100 *
b011111110001101100 -
b011111001110000000000000001100000110010001111100111011000001100101000001100100 .
b1101110000101001100 1
b000001100101000 2
b1110000110 3
b01101000100100000001100 4
b010001001000101000 5
b1100110000 6
b010001010110101010001100 7
1;
1=
1[
1]
1_
1e
0g
1h
1%!
0*!
1+!
0-!
1.!
10!
14!
05!
16!
19!
1:!
0;!
1<!
0B!
0F!
0G!
1`!
1d!
1e!
1h!
1k!
1l!
1m!
1p!
1s!
1t!
0v!
0x!
1y!
0{!
0|!
1~!
0%"
15"
17"
1:"
1;"
1A"
0G"
1H"
0I"
0K"
#29000
b00000000000000000000000000001111 '
1K"
#30000
b11111001100 #
b11111001000 $
b1111001010101101100000 %
b00000000000000000000000000001111 &
b0111110010000 (
b0010100101011 )
b0001010010101101100000 *
b011111110001100000 -
b011111001100000000000000001100000110100001111100110010000011010000000000000000 .
b1101011000101100000 1
b000001101000000 2
b1000000100 3
b01101001000101101100000 4
b010000101000000000 5
b1100010000 6
b010001010010101101100000 7
08
0;
0>
1@
0E
0[
1\
0]
1^
0_
0e
1g
0h
1j
1l
0%!
1*!
0+!
1-!
0.!
0/!
04!
0:!
1>!
0?!
1A!
1C!
1E!
1F!
0`!
0d!
0e!
1q!
0r!
0s!
0u!
1v!
0y!
1z!
05"
07"
0:"
0;"
0A"
1E"
1G"
0H"
0K"
#31000
b00000000000000000000000000010000 '
1K"
#32000
b11111001010 #
b11111000110 $
b1111001000110000111100 %
b00000000000000000000000000010000 &
b0111110001100 (
b0010010101100 )
b0001001010110000111100 *
b011111110000011100 -
b011111001010000000000000001100000110110000000000000001111100101001000001101100 .
b1100000001100111100 1
b000101100100000 2
b0010000010 3
b01101000000101000111100 4
b010000101000100000 5
b1100000000 6
b010001001010110000111100 7
18
09
1;
1<
0=
0?
0A
0B
0F
0G
0T
1W
1Y
1[
0\
1e
0g
1h
1i
0j
1o
0p
1v
1w
1z
0{
1"!
1#!
1%!
1&!
0'!
0*!
0,!
0-!
1.!
1/!
00!
03!
14!
06!
08!
09!
1:!
0<!
0=!
1?!
0A!
0E!
1G!
1I!
1M!
1O!
1`!
1d!
1e!
0h!
0k!
0l!
0m!
1u!
0v!
0z!
0}!
0~!
15"
17"
19"
1;"
1A"
1C"
0G"
0K"
#33000
b00000000000000000000000000010001 '
1K"
#34000
b11111001000 #
b11111000100 $
b1111000110110100100000 %
b00000000000000000000000000010001 &
b0111110001000 (
b0010001101101 )
b0001000110110100100000 *
b011111110000010000 -
b011111001000000000000000001100000111000000000000000000111110010000000000000000 .
b1100001000100100000 1
b000001110000000 2
b0000000000 3
b01101000100110100100000 4
b010000001000000000 5
b010001000110110100100000 7
08
0;
0<
0@
0W
0Y
0[
1\
0e
1g
0h
0i
0l
0%!
1*!
1+!
1-!
0.!
0/!
04!
0:!
0>!
0?!
1A!
0C!
1E!
0F!
1K!
1L!
1N!
0O!
1S!
1V!
0`!
0d!
0e!
0q!
1r!
0u!
1v!
05"
07"
09"
0;"
0A"
0C"
0K"
#35000
b00000000000000000000000000010010 '
1K"
#36000
b11111000110 #
b11111000010 $
b1111000100111000001100 %
b00000000000000000000000000010010 &
b0111110000100 (
b0010001101110 )
b0001000110111000001100 *
b011111110000001100 -
b011111000110000000000000001100000111010000000000000000111110001101000001110100 .
b1100010000111101100 1
b000001110000100 2
b0010000000 3
b01101000100110111001100 4
b010000001000000100 5
b1100010000 6
b010001000110111000001100 7
1;
1=
1V
1W
1Z
1[
0\
1%!
0*!
0+!
0-!
1.!
13!
15!
1:!
1;!
1>!
1?!
1`!
1d!
1e!
1h!
1k!
1l!
1m!
0p!
0t!
0v!
15"
17"
1:"
1;"
1A"
0E"
1F"
1G"
1I"
0K"
#37000
b00000000000000000000000000010011 '
1K"
#38000
b11111000100 #
b11111000000 $
b1111000010111100000000 %
b00000000000000000000000000010011 &
b0111110000000 (
b0010000101111 )
b0001000010111100000000 *
0,
b011111110000000000 -
b011111000100000000000000001100000111100000000000000000000000000000000000000000 .
b1100000111100000000 1
b000000000000000 2
b0000000000 3
b01101000010111100000000 4
b010000000000000000 5
b1100000000 6
b010001000010111100000000 7
0;
0=
0V
0W
0Z
0[
0^
1i
1l
0o
0s
1t
0v
1x
0z
0}
1~
0"!
1$!
0%!
0&!
0.!
03!
05!
0:!
0;!
0>!
0?!
0A!
1C!
0E!
1F!
0I!
0L!
0M!
1O!
0`!
0a!
0d!
0e!
1j!
0k!
0m!
1n!
0r!
05"
07"
0:"
0;"
0A"
0F"
0G"
0I"
0K"
#39000
b00000000000000000000000000010100 '
1K"
