waves/wallacetree_8b_waves.vcd
$version Generated by VerilatedVcd $end
$timescale 1ps $end
 $scope module $rootio $end
 $upscope $end
 $scope module wallacetree_11b_mini_tb $end
  $var wire 11 # tb_a [10:0] $end
  $var wire 11 $ tb_b [10:0] $end
  $var wire 13 ) tb_out [12:0] $end
  $var wire 22 * tb_debug_output [21:0] $end
  $var wire 22 % golden_out [21:0] $end
  $var wire 1 M" tb_clk $end
  $var wire 32 & i [31:0] $end
  $var wire 32 ' failed_cases [31:0] $end
  $var wire 1 + tb_ovf $end
  $var wire 1 , tb_roundloss $end
  $var wire 32 N" SEED [31:0] $end
  $var wire 32 O" NUM_TESTS [31:0] $end
  $scope module trash_heap $end
   $var wire 32 P" NUM_BITS [31:0] $end
   $var wire 11 # a [10:0] $end
   $var wire 11 $ b [10:0] $end
   $var wire 13 ) result [12:0] $end
   $var wire 1 + overflow $end
   $var wire 1 , round_loss $end
   $var wire 22 * debug_output [21:0] $end
   $var wire 13 ( extended_multiplier [12:0] $end
   $var wire 18 - booth_multipliers [17:0] $end
   $var wire 78 . pprod [77:0] $end
   $var wire 19 1 level1_sums [18:0] $end
   $var wire 15 2 level1_carries [14:0] $end
   $var wire 10 3 level1_internal_carries [9:0] $end
   $var wire 23 4 level2_sums [22:0] $end
   $var wire 18 5 level2_carries [17:0] $end
   $var wire 10 6 level2_internal_carries [9:0] $end
   $var wire 24 7 add_result [23:0] $end
   $scope module c42_l1_b13 $end
    $var wire 1 8 x1 $end
    $var wire 1 9 x2 $end
    $var wire 1 : x3 $end
    $var wire 1 ; x4 $end
    $var wire 1 < cin $end
    $var wire 1 = carry $end
    $var wire 1 > sum $end
    $var wire 1 ? cout $end
    $var wire 1 @ x1_x2_xor $end
    $var wire 1 A x3_x4_xor $end
    $var wire 1 B all_xor $end
   $upscope $end
   $scope module c42_l1_b14 $end
    $var wire 1 8 x1 $end
    $var wire 1 C x2 $end
    $var wire 1 D x3 $end
    $var wire 1 E x4 $end
    $var wire 1 ? cin $end
    $var wire 1 F carry $end
    $var wire 1 G sum $end
    $var wire 1 H cout $end
    $var wire 1 I x1_x2_xor $end
    $var wire 1 J x3_x4_xor $end
    $var wire 1 K all_xor $end
   $upscope $end
   $scope module c42_l2_b18 $end
    $var wire 1 L x1 $end
    $var wire 1 M x2 $end
    $var wire 1 N x3 $end
    $var wire 1 Q" x4 $end
    $var wire 1 O cin $end
    $var wire 1 P carry $end
    $var wire 1 Q sum $end
    $var wire 1 R cout $end
    $var wire 1 S x1_x2_xor $end
    $var wire 1 N x3_x4_xor $end
    $var wire 1 T all_xor $end
   $upscope $end
   $scope module fa_l1_b15 $end
    $var wire 1 H a $end
    $var wire 1 U b $end
    $var wire 1 V cin $end
    $var wire 1 W s $end
    $var wire 1 X cout $end
   $upscope $end
   $scope module fa_l1_b4 $end
    $var wire 1 Y a $end
    $var wire 1 Z b $end
    $var wire 1 [ cin $end
    $var wire 1 \ s $end
    $var wire 1 ] cout $end
   $upscope $end
   $scope module fa_l1_b5 $end
    $var wire 1 ^ a $end
    $var wire 1 _ b $end
    $var wire 1 ` cin $end
    $var wire 1 a s $end
    $var wire 1 b cout $end
   $upscope $end
   $scope module fa_l2_b19 $end
    $var wire 1 R a $end
    $var wire 1 c b $end
    $var wire 1 d cin $end
    $var wire 1 e s $end
    $var wire 1 f cout $end
   $upscope $end
   $scope module fa_l2_b8 $end
    $var wire 1 g a $end
    $var wire 1 h b $end
    $var wire 1 i cin $end
    $var wire 1 j s $end
    $var wire 1 k cout $end
   $upscope $end
   $scope module fa_l2_b9 $end
    $var wire 1 l a $end
    $var wire 1 m b $end
    $var wire 1 n cin $end
    $var wire 1 o s $end
    $var wire 1 p cout $end
   $upscope $end
   $scope module genblk3[10] $end
    $scope module c42_l1 $end
     $var wire 1 q x1 $end
     $var wire 1 r x2 $end
     $var wire 1 s x3 $end
     $var wire 1 t x4 $end
     $var wire 1 u cin $end
     $var wire 1 v carry $end
     $var wire 1 w sum $end
     $var wire 1 x cout $end
     $var wire 1 y x1_x2_xor $end
     $var wire 1 z x3_x4_xor $end
     $var wire 1 { all_xor $end
    $upscope $end
   $upscope $end
   $scope module genblk3[11] $end
    $scope module c42_l1 $end
     $var wire 1 | x1 $end
     $var wire 1 } x2 $end
     $var wire 1 ~ x3 $end
     $var wire 1 !! x4 $end
     $var wire 1 x cin $end
     $var wire 1 "! carry $end
     $var wire 1 #! sum $end
     $var wire 1 $! cout $end
     $var wire 1 %! x1_x2_xor $end
     $var wire 1 &! x3_x4_xor $end
     $var wire 1 '! all_xor $end
    $upscope $end
   $upscope $end
   $scope module genblk3[12] $end
    $scope module c42_l1 $end
     $var wire 1 8 x1 $end
     $var wire 1 (! x2 $end
     $var wire 1 )! x3 $end
     $var wire 1 *! x4 $end
     $var wire 1 $! cin $end
     $var wire 1 +! carry $end
     $var wire 1 ,! sum $end
     $var wire 1 < cout $end
     $var wire 1 -! x1_x2_xor $end
     $var wire 1 .! x3_x4_xor $end
     $var wire 1 /! all_xor $end
    $upscope $end
   $upscope $end
   $scope module genblk3[6] $end
    $scope module c42_l1 $end
     $var wire 1 0! x1 $end
     $var wire 1 1! x2 $end
     $var wire 1 2! x3 $end
     $var wire 1 3! x4 $end
     $var wire 1 Q" cin $end
     $var wire 1 4! carry $end
     $var wire 1 5! sum $end
     $var wire 1 6! cout $end
     $var wire 1 7! x1_x2_xor $end
     $var wire 1 8! x3_x4_xor $end
     $var wire 1 5! all_xor $end
    $upscope $end
   $upscope $end
   $scope module genblk3[7] $end
    $scope module c42_l1 $end
     $var wire 1 9! x1 $end
     $var wire 1 :! x2 $end
     $var wire 1 ;! x3 $end
     $var wire 1 <! x4 $end
     $var wire 1 6! cin $end
     $var wire 1 h carry $end
     $var wire 1 =! sum $end
     $var wire 1 >! cout $end
     $var wire 1 ?! x1_x2_xor $end
     $var wire 1 @! x3_x4_xor $end
     $var wire 1 A! all_xor $end
    $upscope $end
   $upscope $end
   $scope module genblk3[8] $end
    $scope module c42_l1 $end
     $var wire 1 B! x1 $end
     $var wire 1 C! x2 $end
     $var wire 1 D! x3 $end
     $var wire 1 E! x4 $end
     $var wire 1 >! cin $end
     $var wire 1 m carry $end
     $var wire 1 g sum $end
     $var wire 1 F! cout $end
     $var wire 1 G! x1_x2_xor $end
     $var wire 1 H! x3_x4_xor $end
     $var wire 1 I! all_xor $end
    $upscope $end
   $upscope $end
   $scope module genblk3[9] $end
    $scope module c42_l1 $end
     $var wire 1 J! x1 $end
     $var wire 1 K! x2 $end
     $var wire 1 L! x3 $end
     $var wire 1 M! x4 $end
     $var wire 1 F! cin $end
     $var wire 1 N! carry $end
     $var wire 1 l sum $end
     $var wire 1 u cout $end
     $var wire 1 O! x1_x2_xor $end
     $var wire 1 P! x3_x4_xor $end
     $var wire 1 Q! all_xor $end
    $upscope $end
   $upscope $end
   $scope module genblk4[10] $end
    $scope module c42_l2 $end
     $var wire 1 R! x1 $end
     $var wire 1 S! x2 $end
     $var wire 1 w x3 $end
     $var wire 1 N! x4 $end
     $var wire 1 Q" cin $end
     $var wire 1 T! carry $end
     $var wire 1 U! sum $end
     $var wire 1 V! cout $end
     $var wire 1 W! x1_x2_xor $end
     $var wire 1 X! x3_x4_xor $end
     $var wire 1 U! all_xor $end
    $upscope $end
   $upscope $end
   $scope module genblk4[11] $end
    $scope module c42_l2 $end
     $var wire 1 Y! x1 $end
     $var wire 1 Z! x2 $end
     $var wire 1 #! x3 $end
     $var wire 1 v x4 $end
     $var wire 1 V! cin $end
     $var wire 1 [! carry $end
     $var wire 1 \! sum $end
     $var wire 1 ]! cout $end
     $var wire 1 ^! x1_x2_xor $end
     $var wire 1 _! x3_x4_xor $end
     $var wire 1 `! all_xor $end
    $upscope $end
   $upscope $end
   $scope module genblk4[12] $end
    $scope module c42_l2 $end
     $var wire 1 a! x1 $end
     $var wire 1 b! x2 $end
     $var wire 1 ,! x3 $end
     $var wire 1 "! x4 $end
     $var wire 1 ]! cin $end
     $var wire 1 c! carry $end
     $var wire 1 d! sum $end
     $var wire 1 e! cout $end
     $var wire 1 f! x1_x2_xor $end
     $var wire 1 g! x3_x4_xor $end
     $var wire 1 h! all_xor $end
    $upscope $end
   $upscope $end
   $scope module genblk4[13] $end
    $scope module c42_l2 $end
     $var wire 1 i! x1 $end
     $var wire 1 j! x2 $end
     $var wire 1 > x3 $end
     $var wire 1 +! x4 $end
     $var wire 1 e! cin $end
     $var wire 1 k! carry $end
     $var wire 1 l! sum $end
     $var wire 1 m! cout $end
     $var wire 1 n! x1_x2_xor $end
     $var wire 1 o! x3_x4_xor $end
     $var wire 1 p! all_xor $end
    $upscope $end
   $upscope $end
   $scope module genblk4[14] $end
    $scope module c42_l2 $end
     $var wire 1 q! x1 $end
     $var wire 1 r! x2 $end
     $var wire 1 G x3 $end
     $var wire 1 = x4 $end
     $var wire 1 m! cin $end
     $var wire 1 s! carry $end
     $var wire 1 t! sum $end
     $var wire 1 u! cout $end
     $var wire 1 v! x1_x2_xor $end
     $var wire 1 w! x3_x4_xor $end
     $var wire 1 x! all_xor $end
    $upscope $end
   $upscope $end
   $scope module genblk4[15] $end
    $scope module c42_l2 $end
     $var wire 1 y! x1 $end
     $var wire 1 z! x2 $end
     $var wire 1 W x3 $end
     $var wire 1 F x4 $end
     $var wire 1 u! cin $end
     $var wire 1 {! carry $end
     $var wire 1 |! sum $end
     $var wire 1 }! cout $end
     $var wire 1 ~! x1_x2_xor $end
     $var wire 1 !" x3_x4_xor $end
     $var wire 1 "" all_xor $end
    $upscope $end
   $upscope $end
   $scope module genblk4[16] $end
    $scope module c42_l2 $end
     $var wire 1 #" x1 $end
     $var wire 1 $" x2 $end
     $var wire 1 %" x3 $end
     $var wire 1 X x4 $end
     $var wire 1 }! cin $end
     $var wire 1 &" carry $end
     $var wire 1 '" sum $end
     $var wire 1 (" cout $end
     $var wire 1 )" x1_x2_xor $end
     $var wire 1 *" x3_x4_xor $end
     $var wire 1 +" all_xor $end
    $upscope $end
   $upscope $end
   $scope module genblk4[17] $end
    $scope module c42_l2 $end
     $var wire 1 ," x1 $end
     $var wire 1 -" x2 $end
     $var wire 1 ." x3 $end
     $var wire 1 /" x4 $end
     $var wire 1 (" cin $end
     $var wire 1 0" carry $end
     $var wire 1 1" sum $end
     $var wire 1 O cout $end
     $var wire 1 2" x1_x2_xor $end
     $var wire 1 3" x3_x4_xor $end
     $var wire 1 4" all_xor $end
    $upscope $end
   $upscope $end
   $scope module ha_l1_b16 $end
    $var wire 1 5" a $end
    $var wire 1 6" b $end
    $var wire 1 %" s $end
    $var wire 1 /" cout $end
   $upscope $end
   $scope module ha_l1_b2 $end
    $var wire 1 7" a $end
    $var wire 1 8" b $end
    $var wire 1 9" s $end
    $var wire 1 :" cout $end
   $upscope $end
   $scope module ha_l1_b3 $end
    $var wire 1 ;" a $end
    $var wire 1 <" b $end
    $var wire 1 =" s $end
    $var wire 1 >" cout $end
   $upscope $end
   $scope module ha_l2_b20 $end
    $var wire 1 ?" a $end
    $var wire 1 @" b $end
    $var wire 1 A" s $end
    $var wire 1 B" cout $end
   $upscope $end
   $scope module ha_l2_b3 $end
    $var wire 1 =" a $end
    $var wire 1 :" b $end
    $var wire 1 C" s $end
    $var wire 1 D" cout $end
   $upscope $end
   $scope module ha_l2_b4 $end
    $var wire 1 \ a $end
    $var wire 1 >" b $end
    $var wire 1 E" s $end
    $var wire 1 F" cout $end
   $upscope $end
   $scope module ha_l2_b5 $end
    $var wire 1 a a $end
    $var wire 1 ] b $end
    $var wire 1 G" s $end
    $var wire 1 H" cout $end
   $upscope $end
   $scope module ha_l2_b6 $end
    $var wire 1 5! a $end
    $var wire 1 b b $end
    $var wire 1 I" s $end
    $var wire 1 J" cout $end
   $upscope $end
   $scope module ha_l2_b7 $end
    $var wire 1 =! a $end
    $var wire 1 4! b $end
    $var wire 1 K" s $end
    $var wire 1 L" cout $end
   $upscope $end
  $upscope $end
 $upscope $end
$enddefinitions $end


#0
b11111101010 #
b11111100110 $
b1111101000001000111100 %
b00000000000000000000000000000000 &
b00000000000000000000000000000000 '
b0111111001100 (
b0000100000010 )
b0000010000001000111100 *
0+
1,
b011111111100011100 -
b011111101010000000000000000000000000000100000010110001111110101001000000101100 .
b0010010100100111100 1
b001000100100000 2
b0110010010 3
b01111001111000000111100 4
b000100000100100000 5
b0010000000 6
b010000010000001000111100 7
18
19
0:
0;
1<
0=
1>
1?
0@
0A
0B
0C
0D
0E
1F
0G
0H
1I
0J
1K
0L
1M
0N
0O
0P
1Q
0R
1S
1T
0U
0V
0W
0X
0Y
1Z
0[
1\
0]
1^
0_
0`
1a
0b
0c
1d
1e
0f
1g
1h
0i
0j
1k
0l
0m
0n
0o
0p
0q
1r
0s
0t
1u
1v
0w
0x
1y
0z
1{
0|
1}
0~
0!!
0"!
1#!
0$!
1%!
0&!
1'!
1(!
0)!
0*!
0+!
0,!
0-!
0.!
0/!
00!
11!
12!
03!
04!
05!
16!
17!
18!
09!
0:!
1;!
0<!
0=!
0>!
0?!
1@!
1A!
0B!
1C!
0D!
0E!
0F!
1G!
0H!
1I!
0J!
1K!
1L!
0M!
0N!
1O!
1P!
0Q!
0R!
0S!
0T!
0U!
0V!
0W!
0X!
0Y!
0Z!
1[!
0\!
0]!
0^!
0_!
0`!
0a!
1b!
0c!
1d!
0e!
1f!
0g!
1h!
0i!
0j!
0k!
1l!
0m!
0n!
1o!
1p!
0q!
1r!
0s!
1t!
0u!
1v!
0w!
1x!
0y!
0z!
0{!
1|!
0}!
0~!
1!"
1""
0#"
1$"
1%"
0&"
0'"
1("
1)"
1*"
0+"
0,"
1-"
0."
0/"
10"
01"
12"
03"
14"
15"
06"
17"
08"
19"
0:"
1;"
0<"
1="
0>"
0?"
1@"
1A"
0B"
1C"
0D"
1E"
0F"
1G"
0H"
0I"
0J"
0K"
0L"
0M"
b00000000000000000000000000001010 N"
b00000000000000000000000000011110 O"
b00000000000000000000000000001011 P"
0Q"
#1000
b00000000000000000000000000000001 '
1M"
#2000
b11111101000 #
b11111100100 $
b1111100110001010100000 %
b00000000000000000000000000000001 &
b0111111001000 (
b0000001100010 )
b0000000110001010100000 *
b011111111100010000 -
b011111101000000000000000000000000000000100000011000000111111010000000000000000 .
b0010001101010100000 1
b000000100000000 2
b0000011000 3
b01111000101001010100000 4
b000100000100000000 5
b010000000110001010100000 7
08
09
0<
0>
0?
0F
0I
0K
0Z
0\
0^
1_
0g
0h
0k
1l
1o
1,!
1-!
1/!
01!
02!
06!
07!
08!
1:!
0;!
1=!
1?!
0@!
1D!
1F!
1H!
0I!
0b!
0f!
1g!
0l!
0o!
0p!
0|!
0!"
0""
07"
09"
0;"
0="
0C"
0E"
1K"
0M"
#3000
b00000000000000000000000000000010 '
1M"
#4000
b11111100110 #
b11111100010 $
b1111100100001100001100 %
b00000000000000000000000000000010 &
b0111111000100 (
b0000011000011 )
b0000001100001100001100 *
b011111111100001100 -
b011111100110000000000000000000000000000100000011010000111111001101000000110100 .
b0010100101011101100 1
b000100100000100 2
b0010011000 3
b01111000011001011001100 4
b000100100100000100 5
b010000001100001100001100 7
18
1<
1=
1@
1B
1G
1I
1K
1Y
1Z
1]
1^
0_
0,!
0-!
0/!
12!
15!
18!
1b!
1f!
0g!
1j!
1l!
1n!
1p!
0r!
1s!
0t!
0v!
0x!
17"
19"
1<"
1="
1C"
0G"
1H"
1I"
0M"
#5000
b00000000000000000000000000000011 '
1M"
#6000
b11111100100 #
b11111100000 $
b1111100010001110000000 %
b00000000000000000000000000000011 &
b0111111000000 (
b0000000100011 )
b0000000010001110000000 *
b011111111100000000 -
b011111100100000000000000000000000000000100000011100000000000000000000000000000 .
b0010000001110000000 1
b000000000000000 2
b0000000000 3
b01111000010001110000000 4
b000100000000000000 5
b010000000010001110000000 7
08
0<
0=
0@
0B
0G
0I
0K
0Y
0Z
0]
0^
0a
1g
1j
0r
0u
0v
0y
0{
0}
0#!
0%!
0'!
0(!
02!
05!
08!
0:!
1;!
0?!
1@!
0C!
0F!
0G!
1I!
0K!
0O!
1Q!
0[!
0b!
0d!
0f!
0h!
0s!
07"
09"
0<"
0="
0C"
0H"
0I"
0M"
#7000
b00000000000000000000000000000100 '
1M"
#8000
b11111100010 #
b11111011110 $
b1111100000001111111100 %
b00000000000000000000000000000100 &
b0111110111100 (
b0011010000011 )
b0001101000001111111100 *
b011111110011111100 -
b011111100010000000000000001100000011110011111100010000000000000001000000111100 .
b1100110101111111100 1
b010000100000000 2
b1110000000 3
b01101000111001111111100 4
b010010000100000000 5
b1100000000 6
b010001101000001111111100 7
18
1:
1<
1>
1?
1@
1A
1D
1G
1H
1I
1J
1N
1O
1R
0T
1U
1X
1Y
1\
1^
1a
0e
1f
1s
1t
1v
1~
1#!
1&!
1'!
1)!
1-!
1.!
12!
15!
18!
0;!
1<!
0D!
1E!
0L!
1M!
1[!
1b!
1d!
1f!
1h!
0j!
0n!
1o!
1t!
1w!
1x!
0%"
1&"
0("
1."
00"
13"
04"
05"
17"
19"
1;"
1="
1C"
1E"
1G"
1I"
0M"
#9000
b00000000000000000000000000000101 '
1M"
#10000
b11111100000 #
b11111011100 $
b1111011110010010000000 %
b00000000000000000000000000000101 &
b0111110111000 (
b0011001100100 )
b0001100110010010000000 *
b011111110011110000 -
b011111100000000000000000001100000100000011111100000011000001000000000000000000 .
b1100101010010000000 1
b010001000000000 2
b1100000000 3
b01101000100010010000000 4
b010010001000000000 5
b010001100110010010000000 7
08
19
0<
0>
1C
0Y
0\
0^
0a
0g
0j
0l
0o
0t
0v
1w
1z
1{
1!!
1"!
0#!
0&!
0'!
1,!
0-!
1/!
02!
05!
08!
1:!
0<!
1?!
0@!
0E!
0H!
0I!
0M!
0P!
0Q!
1U!
1X!
0[!
0b!
1c!
0d!
0f!
0h!
0l!
0o!
0p!
07"
09"
0;"
0="
0C"
0E"
0G"
0I"
0M"
#11000
b00000000000000000000000000000110 '
1M"
#12000
b11111011110 #
b11111011010 $
b1111011100010100001100 %
b00000000000000000000000000000110 &
b0111110110100 (
b0011011000101 )
b0001101100010100001100 *
b011111110011101100 -
b011111011110000000000000001100000100010011111011110011000001000101000001000100 .
b1100000001000001100 1
b011101001100000 2
b1110000110 3
b01101010010000100001100 4
b010001101001000000 5
b010001101100010100001100 7
18
1<
1=
0@
1B
1F
0G
0I
1K
1h
1j
1l
1m
1p
0s
0w
0z
0{
0,!
1-!
0/!
10!
12!
16!
17!
18!
1;!
1<!
0=!
1>!
1D!
1H!
1I!
1L!
1P!
1Q!
0U!
0X!
1b!
1f!
1g!
1j!
1l!
1n!
1p!
1r!
1s!
0t!
1v!
0x!
1z!
1{!
1~!
1!"
0$"
0&"
1'"
0)"
1+"
17"
19"
1<"
1="
1C"
0K"
0M"
#13000
b00000000000000000000000000000111 '
1M"
#14000
b11111011100 #
b11111011000 $
b1111011010010110100000 %
b00000000000000000000000000000111 &
b0111110110000 (
b0011000100101 )
b0001100010010110100000 *
b011111110011100000 -
b011111011100000000000000001100000100100011111011100010000010010000000000000000 .
b1100011000110100000 1
b010001010000000 2
b1000001000 3
b01101011000010110100000 4
b010000101000000000 5
b1100010000 6
b010001100010010110100000 7
08
09
0<
0=
1>
0?
0F
1I
0K
1_
1a
1g
0h
0l
0m
0p
1,!
0-!
1/!
00!
02!
06!
07!
08!
0:!
0<!
1=!
0>!
0?!
1@!
1C!
1E!
1F!
1G!
0H!
1N!
1U!
1X!
0b!
0f!
0g!
0l!
1m!
1o!
0p!
0w!
1x!
0{!
1|!
0!"
1""
07"
09"
0<"
0="
0C"
1G"
1K"
0M"
#15000
b00000000000000000000000000001000 '
1M"
#16000
b11111011010 #
b11111010110 $
b1111011000011000111100 %
b00000000000000000000000000001000 &
b0111110101100 (
b0011000000110 )
b0001100000011000111100 *
b011111110010011100 -
b011111011010000000000000001100000100110001111101101001111101101001000001001100 .
b1101100001100111100 1
b000111001100000 2
b1111100110 3
b01101011110000000111100 4
b010000001001100000 5
b1101100000 6
b010001100000011000111100 7
18
19
1<
1=
0>
1?
0C
1G
0U
1W
0X
1Z
1\
0_
1`
1h
0j
1k
1l
1m
1p
1r
1s
1x
1y
1z
1}
1$!
1%!
1'!
1(!
1+!
0,!
10!
11!
16!
1:!
1<!
0=!
1>!
1?!
0@!
0C!
0F!
0G!
0I!
1K!
0L!
0N!
1O!
0P!
0U!
0X!
1b!
1f!
1g!
0j!
1l!
0m!
0n!
1p!
0s!
1t!
1u!
1}!
1!"
0""
0*"
0+"
17"
19"
1;"
1="
1C"
1E"
0K"
0M"
#17000
b00000000000000000000000000001001 '
1M"
#18000
b11111011000 #
b11111010100 $
b1111010110011011100000 %
b00000000000000000000000000001001 &
b0111110101000 (
b0010101100110 )
b0001010110011011100000 *
b011111110010010000 -
b011111011000000000000000001100000101000001111101100000111110110000000000000000 .
b1100101001011100000 1
b000101010000000 2
b0011101000 3
b01101000100011011100000 4
b010001001000000000 5
b1100100000 6
b010001010110011011100000 7
08
09
0?
0H
0I
1K
0W
0Z
0\
1_
0`
0g
0h
0k
0m
1o
0p
0+!
1,!
1-!
0/!
00!
15!
06!
17!
0:!
0<!
1=!
0>!
0?!
1@!
1C!
0E!
1F!
1G!
1H!
1M!
1N!
1P!
0Q!
1U!
1X!
0b!
0f!
0g!
0l!
0o!
0p!
1{!
0|!
0}!
0!"
1""
0'"
07"
09"
0;"
0="
0C"
0E"
1I"
1K"
0M"
#19000
b00000000000000000000000000001010 '
1M"
#20000
b11111010110 #
b11111010010 $
b1111010100011110001100 %
b00000000000000000000000000001010 &
b0111110100100 (
b0010111000111 )
b0001011100011110001100 *
b011111110010001100 -
b011111010110000000000000001100000101010001111101011000111110101101000001010100 .
b1101110001001101100 1
b000011010100100 2
b1111101010 3
b01101010010011101001100 4
b010000101000000100 5
b1101010000 6
b010001011100011110001100 7
18
0=
1>
1?
1@
0B
1H
1I
0K
1W
1Y
1Z
1]
0_
1`
1h
1j
1+!
0,!
0-!
1/!
10!
12!
16!
07!
18!
0;!
1<!
0=!
1b!
1f!
1g!
1j!
1l!
1m!
1n!
1p!
0r!
1s!
0t!
0u!
0v!
1w!
0{!
1}!
1!"
0""
1'"
17"
19"
1<"
1="
1C"
0G"
1H"
0K"
0M"
#21000
b00000000000000000000000000001011 '
1M"
#22000
b11111010100 #
b11111010000 $
b1111010010100001000000 %
b00000000000000000000000000001011 &
b0111110100000 (
b0010100101000 )
b0001010010100001000000 *
b011111110010000000 -
b011111010100000000000000001100000101100001111101010000000000000000000000000000 .
b1100111011001000000 1
b000001001000000 2
b0000000000 3
b01101001000010001000000 4
b010000101001000000 5
b1100010000 6
b010001010010100001000000 7
08
0<
0?
0@
1B
0H
0I
1K
0W
0Y
0Z
0]
0`
0a
0h
0j
1m
0o
1p
0r
1w
0x
0y
1{
0}
0$!
0%!
0'!
0(!
0+!
1,!
00!
01!
06!
0<!
0@!
0A!
0C!
1E!
0F!
0G!
0H!
0K!
0N!
0O!
1Q!
0b!
0f!
0g!
0l!
1o!
0p!
1|!
0}!
0!"
1""
0'"
07"
09"
0<"
0="
0C"
0H"
0M"
#23000
b00000000000000000000000000001100 '
1M"
#24000
b11111010010 #
b11111001110 $
b1111010000100011111100 %
b00000000000000000000000000001100 &
b0111110011100 (
b0010110001000 )
b0001011000100011111100 *
b011111110001111100 -
b011111010010000000000000001100000101110001111101001000000000000001000001011100 .
b1101110011011111100 1
b1110000000 3
b01101010110010011111100 4
b010000001001000000 5
b1101000000 6
b010001011000100011111100 7
18
1<
1?
1@
0B
1H
1I
0K
1W
1Y
1\
1`
1a
0,!
1-!
0/!
10!
02!
17!
08!
1<!
1=!
1@!
1A!
1b!
1f!
1g!
0j!
1l!
0m!
0n!
1p!
0s!
1t!
0|!
1}!
1!"
0""
1'"
17"
19"
1;"
1="
1C"
1E"
1G"
1K"
0M"
#25000
b00000000000000000000000000001101 '
1M"
#26000
b11111010000 #
b11111001100 $
b1111001110100111000000 %
b00000000000000000000000000001101 &
b0111110011000 (
b0010101101001 )
b0001010110100111000000 *
b011111110001110000 -
b011111010000000000000000001100000110000001111101000011000001100000000000000000 .
b1101101000111000000 1
b000001100000000 2
b1100000000 3
b01101010100100111000000 4
b010000001000000000 5
b010001010110100111000000 7
08
19
0<
0>
1C
0Y
0\
0`
0a
1g
1j
0l
0m
0p
1t
1v
0w
0z
0{
1,!
0-!
1/!
00!
11!
1:!
0<!
1?!
0@!
0E!
1H!
1I!
0M!
0P!
0Q!
0U!
0X!
1\!
1_!
1`!
0b!
0f!
0g!
0l!
0o!
0p!
07"
09"
0;"
0="
0C"
0E"
0G"
0M"
#27000
b00000000000000000000000000001110 '
1M"
#28000
b11111001110 #
b11111001010 $
b1111001100101010001100 %
b00000000000000000000000000001110 &
b0111110010100 (
b0010111001010 )
b0001011100101010001100 *
b011111110001101100 -
b011111001110000000000000001100000110010001111100111011000001100101000001100100 .
b1101000000101001100 1
b001101100101000 2
b1110000110 3
b01101000010100000001100 4
b010001101000101000 5
b1100000000 6
b010001011100101010001100 7
18
1<
1=
0@
1B
1F
0G
0I
1K
1^
1`
1b
1h
0j
1k
0,!
1-!
0/!
10!
12!
16!
07!
18!
1;!
1<!
0=!
1>!
0D!
0H!
0I!
1b!
1f!
1g!
1j!
1l!
1n!
1p!
1r!
1s!
0t!
1v!
0x!
0z!
1{!
0}!
0~!
0!"
0'"
17"
19"
1<"
1="
1C"
0I"
1J"
0K"
0M"
#29000
b00000000000000000000000000001111 '
1M"
#30000
b11111001100 #
b11111001000 $
b1111001010101101100000 %
b00000000000000000000000000001111 &
b0111110010000 (
b0010100101011 )
b0001010010101101100000 *
b011111110001100000 -
b011111001100000000000000001100000110100001111100110010000011010000000000000000 .
b1101011000101100000 1
b000001101000000 2
b1000000100 3
b01101001000101101100000 4
b010000101000000000 5
b1100010000 6
b010001010010101101100000 7
08
09
0<
0=
1>
0?
0F
1I
0K
0^
1_
0`
1a
0b
0h
1j
0k
1m
1o
1,!
0-!
1/!
00!
01!
06!
0<!
1@!
0A!
1C!
1E!
1G!
1H!
0b!
0f!
0g!
0l!
1m!
1o!
0p!
0w!
1x!
0{!
1|!
1!"
1""
07"
09"
0<"
0="
0C"
1G"
1I"
0J"
0M"
#31000
b00000000000000000000000000010000 '
1M"
#32000
b11111001010 #
b11111000110 $
b1111001000110000111100 %
b00000000000000000000000000010000 &
b0111110001100 (
b0010100001100 )
b0001010000110000111100 *
b011111110000011100 -
b011111001010000000000000001100000110110000000000000001111100101001000001101100 .
b1100010001100111100 1
b001001100100000 2
b0110000010 3
b01101001110101000111100 4
b010000001000100000 5
b1100000000 6
b010001010000110000111100 7
18
19
0:
1<
1?
0A
0B
0C
0D
1F
0H
0J
1K
0W
1Z
1\
1^
0_
1h
0j
1k
1l
0m
1r
0s
1y
1z
1}
0~
1%!
1&!
1(!
0)!
0,!
0.!
0/!
10!
11!
02!
05!
16!
08!
0:!
0;!
1<!
0>!
0?!
1A!
0C!
0G!
1I!
1K!
1O!
1Q!
1b!
1f!
1g!
0j!
1l!
0m!
0n!
1p!
0s!
1t!
17"
19"
1;"
1="
1C"
1E"
0I"
0M"
#33000
b00000000000000000000000000010001 '
1M"
#34000
b11111001000 #
b11111000100 $
b1111000110110100100000 %
b00000000000000000000000000010001 &
b0111110001000 (
b0010001101101 )
b0001000110110100100000 *
b011111110000010000 -
b011111001000000000000000001100000111000000000000000000111110010000000000000000 .
b1100001000100100000 1
b000001110000000 2
b0000000000 3
b01101000100110100100000 4
b010000001000000000 5
b010001000110110100100000 7
08
09
0<
0>
0?
0F
0I
0K
0Z
0\
0^
1_
0h
1j
0k
0l
0o
1,!
1-!
1/!
00!
01!
06!
0<!
0@!
0A!
1C!
0E!
1G!
0H!
1M!
1N!
1P!
0Q!
1U!
1X!
0b!
0f!
0g!
0l!
0o!
0p!
0|!
0!"
0""
07"
09"
0;"
0="
0C"
0E"
0M"
#35000
b00000000000000000000000000010010 '
1M"
#36000
b11111000110 #
b11111000010 $
b1111000100111000001100 %
b00000000000000000000000000010010 &
b0111110000100 (
b0010011001110 )
b0001001100111000001100 *
b011111110000001100 -
b011111000110000000000000001100000111010000000000000000111110001101000001110100 .
b1100100000111101100 1
b000101110000100 2
b0010000000 3
b01101000010110111001100 4
b010000101000000100 5
b010001001100111000001100 7
18
1<
1=
1@
1B
1G
1I
1K
1Y
1Z
1]
1^
0_
0,!
0-!
0/!
10!
15!
17!
1<!
1=!
1@!
1A!
1b!
1f!
1g!
1j!
1l!
1n!
1p!
0r!
1s!
0t!
0v!
0x!
17"
19"
1<"
1="
1C"
0G"
1H"
1I"
1K"
0M"
#37000
b00000000000000000000000000010011 '
1M"
#38000
b11111000100 #
b11111000000 $
b1111000010111100000000 %
b00000000000000000000000000010011 &
b0111110000000 (
b0010000101111 )
b0001000010111100000000 *
0,
b011111110000000000 -
b011111000100000000000000001100000111100000000000000000000000000000000000000000 .
b1100000111100000000 1
b000000000000000 2
b0000000000 3
b01101000010111100000000 4
b010000000000000000 5
b010001000010111100000000 7
08
0<
0=
0@
0B
0G
0I
0K
0Y
0Z
0]
0^
0a
1l
1o
0r
0v
1w
0y
1{
0}
0"!
1#!
0%!
1'!
0(!
00!
05!
07!
0<!
0=!
0@!
0A!
0C!
1E!
0G!
1H!
0K!
0N!
0O!
1Q!
0b!
0c!
0f!
0g!
0s!
07"
09"
0<"
0="
0C"
0H"
0I"
0K"
0M"
#39000
b00000000000000000000000000010100 '
1M"
