lockup_free_cache/lockup_free_cache.sim/sim_1/behav/xsim/simulate.log
Time resolution is 1 ps
UVM_INFO D:/2025.1/Vivado/data/system_verilog/uvm_1.2/xlnx_uvm_package.sv(18601) @ 0: reporter [UVM/RELNOTES] 
----------------------------------------------------------------
UVM-1.2
(C) 2007-2014 Mentor Graphics Corporation
(C) 2007-2014 Cadence Design Systems, Inc.
(C) 2006-2014 Synopsys, Inc.
(C) 2011-2013 Cypress Semiconductor Corp.
(C) 2013-2014 NVIDIA Corporation
----------------------------------------------------------------

  ***********       IMPORTANT RELEASE NOTES         ************

  You are using a version of the UVM library that has been compiled
  with `UVM_NO_DEPRECATED undefined.

  You are using a version of the UVM library that has been compiled
  with `UVM_OBJECT_DO_NOT_NEED_CONSTRUCTOR undefined.

      (Specify +UVM_NO_RELNOTES to turn off this notice)

UVM_INFO @ 0: reporter [RNTST] Running test test...
UVM_INFO C:/Users/socce/SoCET/tensor-core/uvm/test.sv(20) @ 0: uvm_test_top [Test] Build Phase
UVM_INFO D:/2025.1/Vivado/data/system_verilog/uvm_1.2/xlnx_uvm_package.sv(20867) @ 0: reporter [UVM/COMP/NAMECHECK] This implementation of the component name checks requires DPI to be enabled
                   0 Starting sequence run_phase
UVM_INFO C:/Users/socce/SoCET/tensor-core/uvm/lfc_cpu_passive_monitor.sv(46) @ 0: uvm_test_top.env.cpu_passive_agent.mon [CPU_MON] Entered run_phase of CPU monitor
UVM_INFO C:/Users/socce/SoCET/tensor-core/uvm/lfc_basic_sequence.sv(18) @ 0: uvm_test_top.env.cpu_active_agent.sqr@@basic_seq [lfc_basic_sequence] Starting lfc_basic_sequence...
UVM_INFO C:/Users/socce/SoCET/tensor-core/uvm/lfc_cpu_passive_monitor.sv(62) @ 10000: uvm_test_top.env.cpu_passive_agent.mon [CPU_MON] Sampled: uuid=x stall=0 hit=0 flushed=0
UVM_INFO C:/Users/socce/SoCET/tensor-core/uvm/lfc_cpu_passive_monitor.sv(62) @ 30000: uvm_test_top.env.cpu_passive_agent.mon [CPU_MON] Sampled: uuid=x stall=0 hit=0 flushed=0
UVM_INFO C:/Users/socce/SoCET/tensor-core/uvm/lfc_cpu_passive_monitor.sv(62) @ 50000: uvm_test_top.env.cpu_passive_agent.mon [CPU_MON] Sampled: uuid=x stall=0 hit=0 flushed=0
UVM_INFO C:/Users/socce/SoCET/tensor-core/uvm/lfc_cpu_passive_monitor.sv(68) @ 50000: uvm_test_top.env.cpu_passive_agent.mon [CPU_MON] Sent tx: uuid=x stall=0 hit=0 flushed=0
UVM_INFO C:/Users/socce/SoCET/tensor-core/uvm/lfc_cpu_passive_monitor.sv(62) @ 70000: uvm_test_top.env.cpu_passive_agent.mon [CPU_MON] Sampled: uuid=x stall=0 hit=0 flushed=0
UVM_INFO C:/Users/socce/SoCET/tensor-core/uvm/lfc_cpu_passive_monitor.sv(68) @ 70000: uvm_test_top.env.cpu_passive_agent.mon [CPU_MON] Sent tx: uuid=x stall=0 hit=0 flushed=0
UVM_INFO C:/Users/socce/SoCET/tensor-core/uvm/lfc_basic_sequence.sv(33) @ 70000: uvm_test_top.env.cpu_active_agent.sqr@@basic_seq [lfc_basic_sequence] Completed: addr=0x1000 data=0xdeadbeef
UVM_INFO C:/Users/socce/SoCET/tensor-core/uvm/lfc_scoreboard.sv(61) @ 70000: uvm_test_top.env.lfc_scoreboard [Scoreboard] CPU stalled correctly
UVM_INFO C:/Users/socce/SoCET/tensor-core/uvm/lfc_cpu_passive_monitor.sv(62) @ 90000: uvm_test_top.env.cpu_passive_agent.mon [CPU_MON] Sampled: uuid=x stall=0 hit=0 flushed=0
UVM_INFO C:/Users/socce/SoCET/tensor-core/uvm/lfc_cpu_passive_monitor.sv(68) @ 90000: uvm_test_top.env.cpu_passive_agent.mon [CPU_MON] Sent tx: uuid=x stall=0 hit=0 flushed=0
UVM_INFO C:/Users/socce/SoCET/tensor-core/uvm/lfc_cpu_passive_monitor.sv(62) @ 110000: uvm_test_top.env.cpu_passive_agent.mon [CPU_MON] Sampled: uuid=x stall=0 hit=0 flushed=0
UVM_INFO C:/Users/socce/SoCET/tensor-core/uvm/lfc_cpu_passive_monitor.sv(68) @ 110000: uvm_test_top.env.cpu_passive_agent.mon [CPU_MON] Sent tx: uuid=x stall=0 hit=0 flushed=0
UVM_INFO C:/Users/socce/SoCET/tensor-core/uvm/lfc_cpu_passive_monitor.sv(62) @ 130000: uvm_test_top.env.cpu_passive_agent.mon [CPU_MON] Sampled: uuid=x stall=0 hit=0 flushed=0
UVM_INFO C:/Users/socce/SoCET/tensor-core/uvm/lfc_cpu_passive_monitor.sv(68) @ 130000: uvm_test_top.env.cpu_passive_agent.mon [CPU_MON] Sent tx: uuid=x stall=0 hit=0 flushed=0
UVM_INFO C:/Users/socce/SoCET/tensor-core/uvm/lfc_cpu_passive_monitor.sv(62) @ 150000: uvm_test_top.env.cpu_passive_agent.mon [CPU_MON] Sampled: uuid=x stall=0 hit=0 flushed=0
UVM_INFO C:/Users/socce/SoCET/tensor-core/uvm/lfc_cpu_passive_monitor.sv(68) @ 150000: uvm_test_top.env.cpu_passive_agent.mon [CPU_MON] Sent tx: uuid=x stall=0 hit=0 flushed=0
UVM_INFO C:/Users/socce/SoCET/tensor-core/uvm/lfc_scoreboard.sv(61) @ 150000: uvm_test_top.env.lfc_scoreboard [Scoreboard] CPU stalled correctly
UVM_INFO C:/Users/socce/SoCET/tensor-core/uvm/lfc_cpu_passive_monitor.sv(62) @ 170000: uvm_test_top.env.cpu_passive_agent.mon [CPU_MON] Sampled: uuid=x stall=0 hit=0 flushed=0
UVM_INFO C:/Users/socce/SoCET/tensor-core/uvm/lfc_cpu_passive_monitor.sv(68) @ 170000: uvm_test_top.env.cpu_passive_agent.mon [CPU_MON] Sent tx: uuid=x stall=0 hit=0 flushed=0
UVM_INFO C:/Users/socce/SoCET/tensor-core/uvm/lfc_wr_sequence.sv(22) @ 170000: uvm_test_top.env.cpu_active_agent.sqr@@wr_seq [lfc_wr_sequence] Starting lfc_wr_sequence...
UVM_INFO C:/Users/socce/SoCET/tensor-core/uvm/lfc_cpu_passive_monitor.sv(62) @ 190000: uvm_test_top.env.cpu_passive_agent.mon [CPU_MON] Sampled: uuid=x stall=0 hit=0 flushed=0
UVM_INFO C:/Users/socce/SoCET/tensor-core/uvm/lfc_cpu_passive_monitor.sv(62) @ 210000: uvm_test_top.env.cpu_passive_agent.mon [CPU_MON] Sampled: uuid=x stall=0 hit=0 flushed=0
UVM_INFO C:/Users/socce/SoCET/tensor-core/uvm/lfc_cpu_passive_monitor.sv(62) @ 230000: uvm_test_top.env.cpu_passive_agent.mon [CPU_MON] Sampled: uuid=x stall=0 hit=0 flushed=0
UVM_INFO C:/Users/socce/SoCET/tensor-core/uvm/lfc_cpu_passive_monitor.sv(68) @ 230000: uvm_test_top.env.cpu_passive_agent.mon [CPU_MON] Sent tx: uuid=x stall=0 hit=0 flushed=0
UVM_INFO C:/Users/socce/SoCET/tensor-core/uvm/lfc_scoreboard.sv(61) @ 230000: uvm_test_top.env.lfc_scoreboard [Scoreboard] CPU stalled correctly
UVM_INFO C:/Users/socce/SoCET/tensor-core/uvm/lfc_cpu_passive_monitor.sv(62) @ 250000: uvm_test_top.env.cpu_passive_agent.mon [CPU_MON] Sampled: uuid=x stall=0 hit=0 flushed=0
UVM_INFO C:/Users/socce/SoCET/tensor-core/uvm/lfc_cpu_passive_monitor.sv(68) @ 250000: uvm_test_top.env.cpu_passive_agent.mon [CPU_MON] Sent tx: uuid=x stall=0 hit=0 flushed=0
UVM_INFO C:/Users/socce/SoCET/tensor-core/uvm/lfc_wr_sequence.sv(40) @ 250000: uvm_test_top.env.cpu_active_agent.sqr@@wr_seq [lfc_wr_sequence] Completed: addr=0x9dd046d data=0xc6b24cca
UVM_INFO C:/Users/socce/SoCET/tensor-core/uvm/lfc_cpu_passive_monitor.sv(62) @ 270000: uvm_test_top.env.cpu_passive_agent.mon [CPU_MON] Sampled: uuid=x stall=0 hit=0 flushed=0
UVM_INFO C:/Users/socce/SoCET/tensor-core/uvm/lfc_cpu_passive_monitor.sv(62) @ 290000: uvm_test_top.env.cpu_passive_agent.mon [CPU_MON] Sampled: uuid=x stall=0 hit=0 flushed=0
UVM_INFO C:/Users/socce/SoCET/tensor-core/uvm/lfc_cpu_passive_monitor.sv(62) @ 310000: uvm_test_top.env.cpu_passive_agent.mon [CPU_MON] Sampled: uuid=x stall=0 hit=0 flushed=0
UVM_INFO C:/Users/socce/SoCET/tensor-core/uvm/lfc_cpu_passive_monitor.sv(68) @ 310000: uvm_test_top.env.cpu_passive_agent.mon [CPU_MON] Sent tx: uuid=x stall=0 hit=0 flushed=0
UVM_INFO C:/Users/socce/SoCET/tensor-core/uvm/lfc_scoreboard.sv(61) @ 310000: uvm_test_top.env.lfc_scoreboard [Scoreboard] CPU stalled correctly
UVM_INFO C:/Users/socce/SoCET/tensor-core/uvm/lfc_cpu_passive_monitor.sv(62) @ 330000: uvm_test_top.env.cpu_passive_agent.mon [CPU_MON] Sampled: uuid=x stall=0 hit=0 flushed=0
UVM_INFO C:/Users/socce/SoCET/tensor-core/uvm/lfc_cpu_passive_monitor.sv(68) @ 330000: uvm_test_top.env.cpu_passive_agent.mon [CPU_MON] Sent tx: uuid=x stall=0 hit=0 flushed=0
UVM_INFO C:/Users/socce/SoCET/tensor-core/uvm/lfc_wr_sequence.sv(40) @ 330000: uvm_test_top.env.cpu_active_agent.sqr@@wr_seq [lfc_wr_sequence] Completed: addr=0xf0e1a13d data=0xe60df121
UVM_INFO C:/Users/socce/SoCET/tensor-core/uvm/lfc_cpu_passive_monitor.sv(62) @ 350000: uvm_test_top.env.cpu_passive_agent.mon [CPU_MON] Sampled: uuid=x stall=0 hit=0 flushed=0
UVM_INFO C:/Users/socce/SoCET/tensor-core/uvm/lfc_cpu_passive_monitor.sv(62) @ 370000: uvm_test_top.env.cpu_passive_agent.mon [CPU_MON] Sampled: uuid=x stall=0 hit=0 flushed=0
UVM_INFO C:/Users/socce/SoCET/tensor-core/uvm/lfc_cpu_passive_monitor.sv(62) @ 390000: uvm_test_top.env.cpu_passive_agent.mon [CPU_MON] Sampled: uuid=x stall=0 hit=0 flushed=0
UVM_INFO C:/Users/socce/SoCET/tensor-core/uvm/lfc_cpu_passive_monitor.sv(68) @ 390000: uvm_test_top.env.cpu_passive_agent.mon [CPU_MON] Sent tx: uuid=x stall=0 hit=0 flushed=0
UVM_INFO C:/Users/socce/SoCET/tensor-core/uvm/lfc_scoreboard.sv(61) @ 390000: uvm_test_top.env.lfc_scoreboard [Scoreboard] CPU stalled correctly
UVM_INFO C:/Users/socce/SoCET/tensor-core/uvm/lfc_cpu_passive_monitor.sv(62) @ 410000: uvm_test_top.env.cpu_passive_agent.mon [CPU_MON] Sampled: uuid=x stall=0 hit=0 flushed=0
UVM_INFO C:/Users/socce/SoCET/tensor-core/uvm/lfc_cpu_passive_monitor.sv(68) @ 410000: uvm_test_top.env.cpu_passive_agent.mon [CPU_MON] Sent tx: uuid=x stall=0 hit=0 flushed=0
UVM_INFO C:/Users/socce/SoCET/tensor-core/uvm/lfc_wr_sequence.sv(40) @ 410000: uvm_test_top.env.cpu_active_agent.sqr@@wr_seq [lfc_wr_sequence] Completed: addr=0xfeeadae1 data=0xa4c539e7
UVM_INFO C:/Users/socce/SoCET/tensor-core/uvm/lfc_cpu_passive_monitor.sv(62) @ 430000: uvm_test_top.env.cpu_passive_agent.mon [CPU_MON] Sampled: uuid=x stall=0 hit=0 flushed=0
UVM_INFO C:/Users/socce/SoCET/tensor-core/uvm/lfc_cpu_passive_monitor.sv(62) @ 450000: uvm_test_top.env.cpu_passive_agent.mon [CPU_MON] Sampled: uuid=x stall=0 hit=0 flushed=0
UVM_INFO C:/Users/socce/SoCET/tensor-core/uvm/lfc_cpu_passive_monitor.sv(62) @ 470000: uvm_test_top.env.cpu_passive_agent.mon [CPU_MON] Sampled: uuid=x stall=0 hit=0 flushed=0
UVM_INFO C:/Users/socce/SoCET/tensor-core/uvm/lfc_cpu_passive_monitor.sv(68) @ 470000: uvm_test_top.env.cpu_passive_agent.mon [CPU_MON] Sent tx: uuid=x stall=0 hit=0 flushed=0
UVM_INFO C:/Users/socce/SoCET/tensor-core/uvm/lfc_scoreboard.sv(61) @ 470000: uvm_test_top.env.lfc_scoreboard [Scoreboard] CPU stalled correctly
UVM_INFO C:/Users/socce/SoCET/tensor-core/uvm/lfc_cpu_passive_monitor.sv(62) @ 490000: uvm_test_top.env.cpu_passive_agent.mon [CPU_MON] Sampled: uuid=x stall=0 hit=0 flushed=0
UVM_INFO C:/Users/socce/SoCET/tensor-core/uvm/lfc_cpu_passive_monitor.sv(68) @ 490000: uvm_test_top.env.cpu_passive_agent.mon [CPU_MON] Sent tx: uuid=x stall=0 hit=0 flushed=0
UVM_INFO C:/Users/socce/SoCET/tensor-core/uvm/lfc_wr_sequence.sv(40) @ 490000: uvm_test_top.env.cpu_active_agent.sqr@@wr_seq [lfc_wr_sequence] Completed: addr=0xf3f8b1a7 data=0xc2d82754
UVM_INFO C:/Users/socce/SoCET/tensor-core/uvm/lfc_cpu_passive_monitor.sv(62) @ 510000: uvm_test_top.env.cpu_passive_agent.mon [CPU_MON] Sampled: uuid=x stall=0 hit=0 flushed=0
UVM_INFO C:/Users/socce/SoCET/tensor-core/uvm/lfc_cpu_passive_monitor.sv(62) @ 530000: uvm_test_top.env.cpu_passive_agent.mon [CPU_MON] Sampled: uuid=x stall=0 hit=0 flushed=0
UVM_INFO C:/Users/socce/SoCET/tensor-core/uvm/lfc_cpu_passive_monitor.sv(62) @ 550000: uvm_test_top.env.cpu_passive_agent.mon [CPU_MON] Sampled: uuid=x stall=0 hit=0 flushed=0
UVM_INFO C:/Users/socce/SoCET/tensor-core/uvm/lfc_cpu_passive_monitor.sv(68) @ 550000: uvm_test_top.env.cpu_passive_agent.mon [CPU_MON] Sent tx: uuid=x stall=0 hit=0 flushed=0
UVM_INFO C:/Users/socce/SoCET/tensor-core/uvm/lfc_scoreboard.sv(61) @ 550000: uvm_test_top.env.lfc_scoreboard [Scoreboard] CPU stalled correctly
UVM_INFO C:/Users/socce/SoCET/tensor-core/uvm/lfc_cpu_passive_monitor.sv(62) @ 570000: uvm_test_top.env.cpu_passive_agent.mon [CPU_MON] Sampled: uuid=x stall=0 hit=0 flushed=0
UVM_INFO C:/Users/socce/SoCET/tensor-core/uvm/lfc_cpu_passive_monitor.sv(68) @ 570000: uvm_test_top.env.cpu_passive_agent.mon [CPU_MON] Sent tx: uuid=x stall=0 hit=0 flushed=0
UVM_INFO C:/Users/socce/SoCET/tensor-core/uvm/lfc_wr_sequence.sv(40) @ 570000: uvm_test_top.env.cpu_active_agent.sqr@@wr_seq [lfc_wr_sequence] Completed: addr=0xd00b251c data=0x8046b903
UVM_INFO C:/Users/socce/SoCET/tensor-core/uvm/lfc_cpu_passive_monitor.sv(62) @ 590000: uvm_test_top.env.cpu_passive_agent.mon [CPU_MON] Sampled: uuid=x stall=0 hit=0 flushed=0
UVM_INFO C:/Users/socce/SoCET/tensor-core/uvm/lfc_cpu_passive_monitor.sv(62) @ 610000: uvm_test_top.env.cpu_passive_agent.mon [CPU_MON] Sampled: uuid=x stall=0 hit=0 flushed=0
UVM_INFO C:/Users/socce/SoCET/tensor-core/uvm/lfc_cpu_passive_monitor.sv(62) @ 630000: uvm_test_top.env.cpu_passive_agent.mon [CPU_MON] Sampled: uuid=x stall=0 hit=0 flushed=0
UVM_INFO C:/Users/socce/SoCET/tensor-core/uvm/lfc_cpu_passive_monitor.sv(68) @ 630000: uvm_test_top.env.cpu_passive_agent.mon [CPU_MON] Sent tx: uuid=x stall=0 hit=0 flushed=0
UVM_INFO C:/Users/socce/SoCET/tensor-core/uvm/lfc_scoreboard.sv(61) @ 630000: uvm_test_top.env.lfc_scoreboard [Scoreboard] CPU stalled correctly
UVM_INFO C:/Users/socce/SoCET/tensor-core/uvm/lfc_cpu_passive_monitor.sv(62) @ 650000: uvm_test_top.env.cpu_passive_agent.mon [CPU_MON] Sampled: uuid=x stall=0 hit=0 flushed=0
UVM_INFO C:/Users/socce/SoCET/tensor-core/uvm/lfc_cpu_passive_monitor.sv(68) @ 650000: uvm_test_top.env.cpu_passive_agent.mon [CPU_MON] Sent tx: uuid=x stall=0 hit=0 flushed=0
UVM_INFO C:/Users/socce/SoCET/tensor-core/uvm/lfc_wr_sequence.sv(40) @ 650000: uvm_test_top.env.cpu_active_agent.sqr@@wr_seq [lfc_wr_sequence] Completed: addr=0xd322357c data=0x9d10ef3b
UVM_INFO C:/Users/socce/SoCET/tensor-core/uvm/lfc_cpu_passive_monitor.sv(62) @ 670000: uvm_test_top.env.cpu_passive_agent.mon [CPU_MON] Sampled: uuid=x stall=0 hit=0 flushed=0
UVM_INFO C:/Users/socce/SoCET/tensor-core/uvm/lfc_cpu_passive_monitor.sv(62) @ 690000: uvm_test_top.env.cpu_passive_agent.mon [CPU_MON] Sampled: uuid=x stall=0 hit=0 flushed=0
UVM_INFO C:/Users/socce/SoCET/tensor-core/uvm/lfc_cpu_passive_monitor.sv(62) @ 710000: uvm_test_top.env.cpu_passive_agent.mon [CPU_MON] Sampled: uuid=x stall=0 hit=0 flushed=0
UVM_INFO C:/Users/socce/SoCET/tensor-core/uvm/lfc_cpu_passive_monitor.sv(68) @ 710000: uvm_test_top.env.cpu_passive_agent.mon [CPU_MON] Sent tx: uuid=x stall=0 hit=0 flushed=0
UVM_ERROR C:/Users/socce/SoCET/tensor-core/uvm/lfc_scoreboard.sv(64) @ 710000: uvm_test_top.env.lfc_scoreboard [Scoreboard] CPU stalled incorrectly
UVM_INFO C:/Users/socce/SoCET/tensor-core/uvm/lfc_cpu_passive_monitor.sv(62) @ 730000: uvm_test_top.env.cpu_passive_agent.mon [CPU_MON] Sampled: uuid=x stall=0 hit=0 flushed=0
UVM_INFO C:/Users/socce/SoCET/tensor-core/uvm/lfc_cpu_passive_monitor.sv(68) @ 730000: uvm_test_top.env.cpu_passive_agent.mon [CPU_MON] Sent tx: uuid=x stall=0 hit=0 flushed=0
UVM_INFO C:/Users/socce/SoCET/tensor-core/uvm/lfc_wr_sequence.sv(40) @ 730000: uvm_test_top.env.cpu_active_agent.sqr@@wr_seq [lfc_wr_sequence] Completed: addr=0x3d3de2c4 data=0x1936c9d7
UVM_INFO C:/Users/socce/SoCET/tensor-core/uvm/lfc_cpu_passive_monitor.sv(62) @ 750000: uvm_test_top.env.cpu_passive_agent.mon [CPU_MON] Sampled: uuid=x stall=0 hit=0 flushed=0
UVM_INFO C:/Users/socce/SoCET/tensor-core/uvm/lfc_cpu_passive_monitor.sv(62) @ 770000: uvm_test_top.env.cpu_passive_agent.mon [CPU_MON] Sampled: uuid=x stall=0 hit=0 flushed=0
UVM_INFO C:/Users/socce/SoCET/tensor-core/uvm/lfc_cpu_passive_monitor.sv(62) @ 790000: uvm_test_top.env.cpu_passive_agent.mon [CPU_MON] Sampled: uuid=x stall=0 hit=0 flushed=0
UVM_INFO C:/Users/socce/SoCET/tensor-core/uvm/lfc_cpu_passive_monitor.sv(68) @ 790000: uvm_test_top.env.cpu_passive_agent.mon [CPU_MON] Sent tx: uuid=x stall=0 hit=0 flushed=0
UVM_ERROR C:/Users/socce/SoCET/tensor-core/uvm/lfc_scoreboard.sv(64) @ 790000: uvm_test_top.env.lfc_scoreboard [Scoreboard] CPU stalled incorrectly
UVM_INFO C:/Users/socce/SoCET/tensor-core/uvm/lfc_cpu_passive_monitor.sv(62) @ 810000: uvm_test_top.env.cpu_passive_agent.mon [CPU_MON] Sampled: uuid=x stall=0 hit=0 flushed=0
UVM_INFO C:/Users/socce/SoCET/tensor-core/uvm/lfc_cpu_passive_monitor.sv(68) @ 810000: uvm_test_top.env.cpu_passive_agent.mon [CPU_MON] Sent tx: uuid=x stall=0 hit=0 flushed=0
UVM_INFO C:/Users/socce/SoCET/tensor-core/uvm/lfc_wr_sequence.sv(40) @ 810000: uvm_test_top.env.cpu_active_agent.sqr@@wr_seq [lfc_wr_sequence] Completed: addr=0x8e5e2cf5 data=0xb4b848f8
UVM_INFO C:/Users/socce/SoCET/tensor-core/uvm/lfc_cpu_passive_monitor.sv(62) @ 830000: uvm_test_top.env.cpu_passive_agent.mon [CPU_MON] Sampled: uuid=x stall=0 hit=0 flushed=0
UVM_INFO C:/Users/socce/SoCET/tensor-core/uvm/lfc_cpu_passive_monitor.sv(62) @ 850000: uvm_test_top.env.cpu_passive_agent.mon [CPU_MON] Sampled: uuid=x stall=0 hit=0 flushed=0
UVM_INFO C:/Users/socce/SoCET/tensor-core/uvm/lfc_cpu_passive_monitor.sv(62) @ 870000: uvm_test_top.env.cpu_passive_agent.mon [CPU_MON] Sampled: uuid=x stall=0 hit=0 flushed=0
UVM_INFO C:/Users/socce/SoCET/tensor-core/uvm/lfc_cpu_passive_monitor.sv(68) @ 870000: uvm_test_top.env.cpu_passive_agent.mon [CPU_MON] Sent tx: uuid=x stall=0 hit=0 flushed=0
UVM_ERROR C:/Users/socce/SoCET/tensor-core/uvm/lfc_scoreboard.sv(64) @ 870000: uvm_test_top.env.lfc_scoreboard [Scoreboard] CPU stalled incorrectly
UVM_INFO C:/Users/socce/SoCET/tensor-core/uvm/lfc_cpu_passive_monitor.sv(62) @ 890000: uvm_test_top.env.cpu_passive_agent.mon [CPU_MON] Sampled: uuid=x stall=0 hit=0 flushed=0
UVM_INFO C:/Users/socce/SoCET/tensor-core/uvm/lfc_cpu_passive_monitor.sv(68) @ 890000: uvm_test_top.env.cpu_passive_agent.mon [CPU_MON] Sent tx: uuid=x stall=0 hit=0 flushed=0
UVM_INFO C:/Users/socce/SoCET/tensor-core/uvm/lfc_wr_sequence.sv(40) @ 890000: uvm_test_top.env.cpu_active_agent.sqr@@wr_seq [lfc_wr_sequence] Completed: addr=0x68313d3 data=0xef956c48
UVM_INFO C:/Users/socce/SoCET/tensor-core/uvm/lfc_cpu_passive_monitor.sv(62) @ 910000: uvm_test_top.env.cpu_passive_agent.mon [CPU_MON] Sampled: uuid=x stall=0 hit=0 flushed=0
UVM_INFO C:/Users/socce/SoCET/tensor-core/uvm/lfc_cpu_passive_monitor.sv(62) @ 930000: uvm_test_top.env.cpu_passive_agent.mon [CPU_MON] Sampled: uuid=x stall=0 hit=0 flushed=0
UVM_INFO C:/Users/socce/SoCET/tensor-core/uvm/lfc_cpu_passive_monitor.sv(62) @ 950000: uvm_test_top.env.cpu_passive_agent.mon [CPU_MON] Sampled: uuid=x stall=0 hit=0 flushed=0
UVM_INFO C:/Users/socce/SoCET/tensor-core/uvm/lfc_cpu_passive_monitor.sv(68) @ 950000: uvm_test_top.env.cpu_passive_agent.mon [CPU_MON] Sent tx: uuid=x stall=0 hit=0 flushed=0
UVM_ERROR C:/Users/socce/SoCET/tensor-core/uvm/lfc_scoreboard.sv(64) @ 950000: uvm_test_top.env.lfc_scoreboard [Scoreboard] CPU stalled incorrectly
UVM_INFO C:/Users/socce/SoCET/tensor-core/uvm/lfc_cpu_passive_monitor.sv(62) @ 970000: uvm_test_top.env.cpu_passive_agent.mon [CPU_MON] Sampled: uuid=x stall=0 hit=0 flushed=0
UVM_INFO C:/Users/socce/SoCET/tensor-core/uvm/lfc_cpu_passive_monitor.sv(68) @ 970000: uvm_test_top.env.cpu_passive_agent.mon [CPU_MON] Sent tx: uuid=x stall=0 hit=0 flushed=0
UVM_INFO C:/Users/socce/SoCET/tensor-core/uvm/lfc_wr_sequence.sv(40) @ 970000: uvm_test_top.env.cpu_active_agent.sqr@@wr_seq [lfc_wr_sequence] Completed: addr=0xe5ac97c0 data=0x9ce343c
UVM_INFO C:/Users/socce/SoCET/tensor-core/uvm/lfc_cpu_passive_monitor.sv(62) @ 990000: uvm_test_top.env.cpu_passive_agent.mon [CPU_MON] Sampled: uuid=x stall=0 hit=0 flushed=0
