lockup_free_cache/lockup_free_cache.sim/sim_1/behav/xsim/simulate.log
Time resolution is 1 ps
UVM_INFO D:/2025.1/Vivado/data/system_verilog/uvm_1.2/xlnx_uvm_package.sv(18601) @ 0: reporter [UVM/RELNOTES] 
----------------------------------------------------------------
UVM-1.2
(C) 2007-2014 Mentor Graphics Corporation
(C) 2007-2014 Cadence Design Systems, Inc.
(C) 2006-2014 Synopsys, Inc.
(C) 2011-2013 Cypress Semiconductor Corp.
(C) 2013-2014 NVIDIA Corporation
----------------------------------------------------------------

  ***********       IMPORTANT RELEASE NOTES         ************

  You are using a version of the UVM library that has been compiled
  with `UVM_NO_DEPRECATED undefined.

  You are using a version of the UVM library that has been compiled
  with `UVM_OBJECT_DO_NOT_NEED_CONSTRUCTOR undefined.

      (Specify +UVM_NO_RELNOTES to turn off this notice)

UVM_INFO @ 0: reporter [RNTST] Running test test...
UVM_INFO C:/Users/socce/SoCET/tensor-core/uvm/test.sv(20) @ 0: uvm_test_top [Test] Build Phase
UVM_INFO D:/2025.1/Vivado/data/system_verilog/uvm_1.2/xlnx_uvm_package.sv(20867) @ 0: reporter [UVM/COMP/NAMECHECK] This implementation of the component name checks requires DPI to be enabled
                   0 Starting sequence run_phase
UVM_INFO C:/Users/socce/SoCET/tensor-core/uvm/lfc_cpu_passive_monitor.sv(46) @ 0: uvm_test_top.env.cpu_passive_agent.mon [CPU_MON] Entered run_phase of CPU monitor
UVM_INFO C:/Users/socce/SoCET/tensor-core/uvm/lfc_wr_sequence.sv(22) @ 0: uvm_test_top.env.cpu_active_agent.sqr@@wr_seq [lfc_wr_sequence] Starting lfc_wr_sequence...
UVM_INFO C:/Users/socce/SoCET/tensor-core/uvm/lfc_wr_sequence.sv(26) @ 0: uvm_test_top.env.cpu_active_agent.sqr@@wr_seq [lfc_wr_sequence] Starting write transactions...
UVM_INFO C:/Users/socce/SoCET/tensor-core/uvm/lfc_cpu_passive_monitor.sv(62) @ 10000: uvm_test_top.env.cpu_passive_agent.mon [CPU_PASSIVE_MON] Sampled: uuid=x stall=0 hit=0 flushed=0
UVM_INFO C:/Users/socce/SoCET/tensor-core/uvm/lfc_cpu_passive_monitor.sv(62) @ 30000: uvm_test_top.env.cpu_passive_agent.mon [CPU_PASSIVE_MON] Sampled: uuid=x stall=0 hit=0 flushed=0
UVM_INFO C:/Users/socce/SoCET/tensor-core/uvm/lfc_cpu_passive_monitor.sv(62) @ 50000: uvm_test_top.env.cpu_passive_agent.mon [CPU_PASSIVE_MON] Sampled: uuid=x stall=0 hit=0 flushed=0
UVM_INFO C:/Users/socce/SoCET/tensor-core/uvm/lfc_cpu_passive_monitor.sv(62) @ 70000: uvm_test_top.env.cpu_passive_agent.mon [CPU_PASSIVE_MON] Sampled: uuid=0 stall=0 hit=0 flushed=0
UVM_INFO C:/Users/socce/SoCET/tensor-core/uvm/lfc_cpu_passive_monitor.sv(67) @ 70000: uvm_test_top.env.cpu_passive_agent.mon [CPU_PASSIVE_MON] Sent write tx: uuid=0 stall=0 hit=0 flushed=0
UVM_INFO C:/Users/socce/SoCET/tensor-core/uvm/lfc_wr_sequence.sv(42) @ 70000: uvm_test_top.env.cpu_active_agent.sqr@@wr_seq [lfc_wr_sequence] Write 1 Completed: addr=0x3b843874 data=0xbf76ed24
UVM_INFO C:/Users/socce/SoCET/tensor-core/uvm/lfc_scoreboard.sv(88) @ 70000: uvm_test_top.env.lfc_scoreboard [SCOREBOARD] STALL match (uuid=0): stall=0
UVM_INFO C:/Users/socce/SoCET/tensor-core/uvm/lfc_cpu_passive_monitor.sv(62) @ 90000: uvm_test_top.env.cpu_passive_agent.mon [CPU_PASSIVE_MON] Sampled: uuid=0 stall=0 hit=0 flushed=0
UVM_INFO C:/Users/socce/SoCET/tensor-core/uvm/lfc_cpu_passive_monitor.sv(67) @ 90000: uvm_test_top.env.cpu_passive_agent.mon [CPU_PASSIVE_MON] Sent write tx: uuid=0 stall=0 hit=0 flushed=0
UVM_INFO C:/Users/socce/SoCET/tensor-core/uvm/lfc_wr_sequence.sv(42) @ 90000: uvm_test_top.env.cpu_active_agent.sqr@@wr_seq [lfc_wr_sequence] Write 2 Completed: addr=0x7ef43b58 data=0x98e00af
UVM_INFO C:/Users/socce/SoCET/tensor-core/uvm/lfc_scoreboard.sv(88) @ 90000: uvm_test_top.env.lfc_scoreboard [SCOREBOARD] STALL match (uuid=0): stall=0
UVM_INFO C:/Users/socce/SoCET/tensor-core/uvm/lfc_cpu_passive_monitor.sv(62) @ 110000: uvm_test_top.env.cpu_passive_agent.mon [CPU_PASSIVE_MON] Sampled: uuid=0 stall=0 hit=0 flushed=0
UVM_INFO C:/Users/socce/SoCET/tensor-core/uvm/lfc_cpu_passive_monitor.sv(67) @ 110000: uvm_test_top.env.cpu_passive_agent.mon [CPU_PASSIVE_MON] Sent write tx: uuid=0 stall=0 hit=0 flushed=0
UVM_INFO C:/Users/socce/SoCET/tensor-core/uvm/lfc_wr_sequence.sv(42) @ 110000: uvm_test_top.env.cpu_active_agent.sqr@@wr_seq [lfc_wr_sequence] Write 3 Completed: addr=0x3d74abe0 data=0xf09dd0fe
UVM_INFO C:/Users/socce/SoCET/tensor-core/uvm/lfc_scoreboard.sv(88) @ 110000: uvm_test_top.env.lfc_scoreboard [SCOREBOARD] STALL match (uuid=0): stall=0
UVM_INFO C:/Users/socce/SoCET/tensor-core/uvm/lfc_cpu_passive_monitor.sv(62) @ 130000: uvm_test_top.env.cpu_passive_agent.mon [CPU_PASSIVE_MON] Sampled: uuid=0 stall=0 hit=0 flushed=0
UVM_INFO C:/Users/socce/SoCET/tensor-core/uvm/lfc_cpu_passive_monitor.sv(67) @ 130000: uvm_test_top.env.cpu_passive_agent.mon [CPU_PASSIVE_MON] Sent write tx: uuid=0 stall=0 hit=0 flushed=0
UVM_INFO C:/Users/socce/SoCET/tensor-core/uvm/lfc_wr_sequence.sv(42) @ 130000: uvm_test_top.env.cpu_active_agent.sqr@@wr_seq [lfc_wr_sequence] Write 4 Completed: addr=0x404ac164 data=0x9044c2d
UVM_INFO C:/Users/socce/SoCET/tensor-core/uvm/lfc_scoreboard.sv(88) @ 130000: uvm_test_top.env.lfc_scoreboard [SCOREBOARD] STALL match (uuid=0): stall=0
UVM_INFO C:/Users/socce/SoCET/tensor-core/uvm/lfc_cpu_passive_monitor.sv(62) @ 150000: uvm_test_top.env.cpu_passive_agent.mon [CPU_PASSIVE_MON] Sampled: uuid=0 stall=0 hit=0 flushed=0
UVM_INFO C:/Users/socce/SoCET/tensor-core/uvm/lfc_cpu_passive_monitor.sv(67) @ 150000: uvm_test_top.env.cpu_passive_agent.mon [CPU_PASSIVE_MON] Sent write tx: uuid=0 stall=0 hit=0 flushed=0
UVM_INFO C:/Users/socce/SoCET/tensor-core/uvm/lfc_wr_sequence.sv(42) @ 150000: uvm_test_top.env.cpu_active_agent.sqr@@wr_seq [lfc_wr_sequence] Write 5 Completed: addr=0x3f42c94 data=0xa192be2c
UVM_INFO C:/Users/socce/SoCET/tensor-core/uvm/lfc_scoreboard.sv(88) @ 150000: uvm_test_top.env.lfc_scoreboard [SCOREBOARD] STALL match (uuid=0): stall=0
UVM_INFO C:/Users/socce/SoCET/tensor-core/uvm/lfc_cpu_passive_monitor.sv(62) @ 170000: uvm_test_top.env.cpu_passive_agent.mon [CPU_PASSIVE_MON] Sampled: uuid=0 stall=0 hit=0 flushed=0
UVM_INFO C:/Users/socce/SoCET/tensor-core/uvm/lfc_cpu_passive_monitor.sv(67) @ 170000: uvm_test_top.env.cpu_passive_agent.mon [CPU_PASSIVE_MON] Sent write tx: uuid=0 stall=0 hit=0 flushed=0
UVM_INFO C:/Users/socce/SoCET/tensor-core/uvm/lfc_wr_sequence.sv(42) @ 170000: uvm_test_top.env.cpu_active_agent.sqr@@wr_seq [lfc_wr_sequence] Write 6 Completed: addr=0xd606b5c data=0x2ab18a26
UVM_INFO C:/Users/socce/SoCET/tensor-core/uvm/lfc_scoreboard.sv(88) @ 170000: uvm_test_top.env.lfc_scoreboard [SCOREBOARD] STALL match (uuid=0): stall=0
UVM_INFO C:/Users/socce/SoCET/tensor-core/uvm/lfc_cpu_passive_monitor.sv(62) @ 190000: uvm_test_top.env.cpu_passive_agent.mon [CPU_PASSIVE_MON] Sampled: uuid=0 stall=0 hit=0 flushed=0
UVM_INFO C:/Users/socce/SoCET/tensor-core/uvm/lfc_cpu_passive_monitor.sv(67) @ 190000: uvm_test_top.env.cpu_passive_agent.mon [CPU_PASSIVE_MON] Sent write tx: uuid=0 stall=0 hit=0 flushed=0
UVM_INFO C:/Users/socce/SoCET/tensor-core/uvm/lfc_wr_sequence.sv(42) @ 190000: uvm_test_top.env.cpu_active_agent.sqr@@wr_seq [lfc_wr_sequence] Write 7 Completed: addr=0x3b5ccfdc data=0x24ae2e3b
UVM_INFO C:/Users/socce/SoCET/tensor-core/uvm/lfc_scoreboard.sv(88) @ 190000: uvm_test_top.env.lfc_scoreboard [SCOREBOARD] STALL match (uuid=0): stall=0
UVM_INFO C:/Users/socce/SoCET/tensor-core/uvm/lfc_cpu_passive_monitor.sv(62) @ 210000: uvm_test_top.env.cpu_passive_agent.mon [CPU_PASSIVE_MON] Sampled: uuid=0 stall=0 hit=0 flushed=0
UVM_INFO C:/Users/socce/SoCET/tensor-core/uvm/lfc_cpu_passive_monitor.sv(67) @ 210000: uvm_test_top.env.cpu_passive_agent.mon [CPU_PASSIVE_MON] Sent write tx: uuid=0 stall=0 hit=0 flushed=0
UVM_INFO C:/Users/socce/SoCET/tensor-core/uvm/lfc_wr_sequence.sv(42) @ 210000: uvm_test_top.env.cpu_active_agent.sqr@@wr_seq [lfc_wr_sequence] Write 8 Completed: addr=0x2525fd60 data=0xee0c3b57
UVM_INFO C:/Users/socce/SoCET/tensor-core/uvm/lfc_scoreboard.sv(88) @ 210000: uvm_test_top.env.lfc_scoreboard [SCOREBOARD] STALL match (uuid=0): stall=0
UVM_INFO C:/Users/socce/SoCET/tensor-core/uvm/lfc_cpu_passive_monitor.sv(62) @ 230000: uvm_test_top.env.cpu_passive_agent.mon [CPU_PASSIVE_MON] Sampled: uuid=0 stall=0 hit=0 flushed=0
UVM_INFO C:/Users/socce/SoCET/tensor-core/uvm/lfc_cpu_passive_monitor.sv(67) @ 230000: uvm_test_top.env.cpu_passive_agent.mon [CPU_PASSIVE_MON] Sent write tx: uuid=0 stall=0 hit=0 flushed=0
UVM_INFO C:/Users/socce/SoCET/tensor-core/uvm/lfc_wr_sequence.sv(42) @ 230000: uvm_test_top.env.cpu_active_agent.sqr@@wr_seq [lfc_wr_sequence] Write 9 Completed: addr=0x71f8b8ac data=0xda571bba
UVM_ERROR C:/Users/socce/SoCET/tensor-core/uvm/lfc_scoreboard.sv(85) @ 230000: uvm_test_top.env.lfc_scoreboard [SCOREBOARD] STALL mismatch (uuid=0): Expected 1, Got 0
UVM_INFO C:/Users/socce/SoCET/tensor-core/uvm/lfc_cpu_passive_monitor.sv(62) @ 250000: uvm_test_top.env.cpu_passive_agent.mon [CPU_PASSIVE_MON] Sampled: uuid=0 stall=0 hit=0 flushed=0
UVM_INFO C:/Users/socce/SoCET/tensor-core/uvm/lfc_cpu_passive_monitor.sv(67) @ 250000: uvm_test_top.env.cpu_passive_agent.mon [CPU_PASSIVE_MON] Sent write tx: uuid=0 stall=0 hit=0 flushed=0
UVM_INFO C:/Users/socce/SoCET/tensor-core/uvm/lfc_wr_sequence.sv(42) @ 250000: uvm_test_top.env.cpu_active_agent.sqr@@wr_seq [lfc_wr_sequence] Write 10 Completed: addr=0x6d2ffe70 data=0x2026646d
UVM_INFO C:/Users/socce/SoCET/tensor-core/uvm/lfc_wr_sequence.sv(47) @ 250000: uvm_test_top.env.cpu_active_agent.sqr@@wr_seq [lfc_wr_sequence] Starting read transactions...
UVM_ERROR C:/Users/socce/SoCET/tensor-core/uvm/lfc_scoreboard.sv(85) @ 250000: uvm_test_top.env.lfc_scoreboard [SCOREBOARD] STALL mismatch (uuid=0): Expected 1, Got 0
UVM_INFO C:/Users/socce/SoCET/tensor-core/uvm/lfc_cpu_passive_monitor.sv(62) @ 270000: uvm_test_top.env.cpu_passive_agent.mon [CPU_PASSIVE_MON] Sampled: uuid=1 stall=0 hit=0 flushed=0
UVM_INFO C:/Users/socce/SoCET/tensor-core/uvm/lfc_wr_sequence.sv(64) @ 270000: uvm_test_top.env.cpu_active_agent.sqr@@wr_seq [lfc_wr_sequence] Read 1 Completed: addr=0x3b843874 data=0x0
UVM_INFO C:/Users/socce/SoCET/tensor-core/uvm/lfc_cpu_passive_monitor.sv(62) @ 290000: uvm_test_top.env.cpu_passive_agent.mon [CPU_PASSIVE_MON] Sampled: uuid=1 stall=0 hit=0 flushed=0
UVM_INFO C:/Users/socce/SoCET/tensor-core/uvm/lfc_wr_sequence.sv(64) @ 290000: uvm_test_top.env.cpu_active_agent.sqr@@wr_seq [lfc_wr_sequence] Read 2 Completed: addr=0x7ef43b58 data=0x0
UVM_INFO C:/Users/socce/SoCET/tensor-core/uvm/lfc_cpu_passive_monitor.sv(62) @ 310000: uvm_test_top.env.cpu_passive_agent.mon [CPU_PASSIVE_MON] Sampled: uuid=1 stall=0 hit=0 flushed=0
UVM_INFO C:/Users/socce/SoCET/tensor-core/uvm/lfc_wr_sequence.sv(64) @ 310000: uvm_test_top.env.cpu_active_agent.sqr@@wr_seq [lfc_wr_sequence] Read 3 Completed: addr=0x3d74abe0 data=0x0
UVM_INFO C:/Users/socce/SoCET/tensor-core/uvm/lfc_cpu_passive_monitor.sv(62) @ 330000: uvm_test_top.env.cpu_passive_agent.mon [CPU_PASSIVE_MON] Sampled: uuid=2 stall=0 hit=0 flushed=0
UVM_INFO C:/Users/socce/SoCET/tensor-core/uvm/lfc_wr_sequence.sv(64) @ 330000: uvm_test_top.env.cpu_active_agent.sqr@@wr_seq [lfc_wr_sequence] Read 4 Completed: addr=0x404ac164 data=0x0
UVM_INFO C:/Users/socce/SoCET/tensor-core/uvm/lfc_cpu_passive_monitor.sv(62) @ 350000: uvm_test_top.env.cpu_passive_agent.mon [CPU_PASSIVE_MON] Sampled: uuid=2 stall=0 hit=0 flushed=0
UVM_INFO C:/Users/socce/SoCET/tensor-core/uvm/lfc_wr_sequence.sv(64) @ 350000: uvm_test_top.env.cpu_active_agent.sqr@@wr_seq [lfc_wr_sequence] Read 5 Completed: addr=0x3f42c94 data=0x0
UVM_INFO C:/Users/socce/SoCET/tensor-core/uvm/lfc_cpu_passive_monitor.sv(62) @ 370000: uvm_test_top.env.cpu_passive_agent.mon [CPU_PASSIVE_MON] Sampled: uuid=3 stall=0 hit=0 flushed=0
UVM_INFO C:/Users/socce/SoCET/tensor-core/uvm/lfc_wr_sequence.sv(64) @ 370000: uvm_test_top.env.cpu_active_agent.sqr@@wr_seq [lfc_wr_sequence] Read 6 Completed: addr=0xd606b5c data=0x0
UVM_INFO C:/Users/socce/SoCET/tensor-core/uvm/lfc_cpu_passive_monitor.sv(62) @ 390000: uvm_test_top.env.cpu_passive_agent.mon [CPU_PASSIVE_MON] Sampled: uuid=4 stall=0 hit=0 flushed=0
UVM_INFO C:/Users/socce/SoCET/tensor-core/uvm/lfc_wr_sequence.sv(64) @ 390000: uvm_test_top.env.cpu_active_agent.sqr@@wr_seq [lfc_wr_sequence] Read 7 Completed: addr=0x3b5ccfdc data=0x0
UVM_INFO C:/Users/socce/SoCET/tensor-core/uvm/lfc_cpu_passive_monitor.sv(62) @ 410000: uvm_test_top.env.cpu_passive_agent.mon [CPU_PASSIVE_MON] Sampled: uuid=3 stall=0 hit=0 flushed=0
UVM_INFO C:/Users/socce/SoCET/tensor-core/uvm/lfc_wr_sequence.sv(64) @ 410000: uvm_test_top.env.cpu_active_agent.sqr@@wr_seq [lfc_wr_sequence] Read 8 Completed: addr=0x2525fd60 data=0x0
UVM_INFO C:/Users/socce/SoCET/tensor-core/uvm/lfc_cpu_passive_monitor.sv(62) @ 430000: uvm_test_top.env.cpu_passive_agent.mon [CPU_PASSIVE_MON] Sampled: uuid=4 stall=0 hit=0 flushed=0
UVM_INFO C:/Users/socce/SoCET/tensor-core/uvm/lfc_wr_sequence.sv(64) @ 430000: uvm_test_top.env.cpu_active_agent.sqr@@wr_seq [lfc_wr_sequence] Read 9 Completed: addr=0x71f8b8ac data=0x0
UVM_INFO C:/Users/socce/SoCET/tensor-core/uvm/lfc_cpu_passive_monitor.sv(62) @ 450000: uvm_test_top.env.cpu_passive_agent.mon [CPU_PASSIVE_MON] Sampled: uuid=2 stall=0 hit=0 flushed=0
UVM_INFO C:/Users/socce/SoCET/tensor-core/uvm/lfc_ram_passive_monitor.sv(71) @ 450000: uvm_test_top.env.ram_passive_agent.mon [RAM_MON] Captured bank=3 REN=1 WEN=0 addr=0x3b843810 store=0x00000000 data=0xxxxxxxxx complete=x
UVM_INFO C:/Users/socce/SoCET/tensor-core/uvm/lfc_wr_sequence.sv(64) @ 450000: uvm_test_top.env.cpu_active_agent.sqr@@wr_seq [lfc_wr_sequence] Read 10 Completed: addr=0x6d2ffe70 data=0x0
UVM_INFO C:/Users/socce/SoCET/tensor-core/uvm/lfc_ram_passive_monitor.sv(71) @ 470000: uvm_test_top.env.ram_passive_agent.mon [RAM_MON] Captured bank=1 REN=1 WEN=0 addr=0x7ef438d0 store=0x00000000 data=0xxxxxxxxx complete=x
UVM_INFO C:/Users/socce/SoCET/tensor-core/uvm/lfc_ram_passive_monitor.sv(71) @ 470000: uvm_test_top.env.ram_passive_agent.mon [RAM_MON] Captured bank=3 REN=1 WEN=0 addr=0x3b843810 store=0x00000000 data=0xxxxxxxxx complete=x
UVM_INFO C:/Users/socce/SoCET/tensor-core/uvm/lfc_cpu_passive_monitor.sv(62) @ 470000: uvm_test_top.env.cpu_passive_agent.mon [CPU_PASSIVE_MON] Sampled: uuid=2 stall=1 hit=0 flushed=0
UVM_INFO C:/Users/socce/SoCET/tensor-core/uvm/lfc_cpu_passive_monitor.sv(62) @ 490000: uvm_test_top.env.cpu_passive_agent.mon [CPU_PASSIVE_MON] Sampled: uuid=0 stall=1 hit=0 flushed=0
UVM_INFO C:/Users/socce/SoCET/tensor-core/uvm/lfc_ram_passive_monitor.sv(71) @ 490000: uvm_test_top.env.ram_passive_agent.mon [RAM_MON] Captured bank=1 REN=1 WEN=0 addr=0x7ef438d0 store=0x00000000 data=0xxxxxxxxx complete=x
UVM_INFO C:/Users/socce/SoCET/tensor-core/uvm/lfc_ram_passive_monitor.sv(71) @ 490000: uvm_test_top.env.ram_passive_agent.mon [RAM_MON] Captured bank=2 REN=1 WEN=0 addr=0x3d74a8f0 store=0x00000000 data=0xxxxxxxxx complete=x
UVM_INFO C:/Users/socce/SoCET/tensor-core/uvm/lfc_ram_passive_monitor.sv(71) @ 490000: uvm_test_top.env.ram_passive_agent.mon [RAM_MON] Captured bank=3 REN=1 WEN=0 addr=0x3b843810 store=0x00000000 data=0xxxxxxxxx complete=x
UVM_INFO C:/Users/socce/SoCET/tensor-core/uvm/lfc_ram_passive_monitor.sv(71) @ 510000: uvm_test_top.env.ram_passive_agent.mon [RAM_MON] Captured bank=1 REN=1 WEN=0 addr=0x7ef438d0 store=0x00000000 data=0xxxxxxxxx complete=x
UVM_INFO C:/Users/socce/SoCET/tensor-core/uvm/lfc_ram_passive_monitor.sv(71) @ 510000: uvm_test_top.env.ram_passive_agent.mon [RAM_MON] Captured bank=2 REN=1 WEN=0 addr=0x3d74a8f0 store=0x00000000 data=0xxxxxxxxx complete=x
UVM_INFO C:/Users/socce/SoCET/tensor-core/uvm/lfc_ram_passive_monitor.sv(71) @ 510000: uvm_test_top.env.ram_passive_agent.mon [RAM_MON] Captured bank=3 REN=1 WEN=0 addr=0x3b843810 store=0x00000000 data=0xxxxxxxxx complete=x
UVM_INFO C:/Users/socce/SoCET/tensor-core/uvm/lfc_cpu_passive_monitor.sv(62) @ 510000: uvm_test_top.env.cpu_passive_agent.mon [CPU_PASSIVE_MON] Sampled: uuid=0 stall=1 hit=0 flushed=0
UVM_INFO C:/Users/socce/SoCET/tensor-core/uvm/lfc_cpu_passive_monitor.sv(62) @ 530000: uvm_test_top.env.cpu_passive_agent.mon [CPU_PASSIVE_MON] Sampled: uuid=0 stall=1 hit=0 flushed=0
UVM_INFO C:/Users/socce/SoCET/tensor-core/uvm/lfc_ram_passive_monitor.sv(71) @ 530000: uvm_test_top.env.ram_passive_agent.mon [RAM_MON] Captured bank=1 REN=1 WEN=0 addr=0x7ef438d0 store=0x00000000 data=0xxxxxxxxx complete=x
UVM_INFO C:/Users/socce/SoCET/tensor-core/uvm/lfc_ram_passive_monitor.sv(71) @ 530000: uvm_test_top.env.ram_passive_agent.mon [RAM_MON] Captured bank=2 REN=1 WEN=0 addr=0x3d74a8f0 store=0x00000000 data=0xxxxxxxxx complete=x
UVM_INFO C:/Users/socce/SoCET/tensor-core/uvm/lfc_ram_passive_monitor.sv(71) @ 530000: uvm_test_top.env.ram_passive_agent.mon [RAM_MON] Captured bank=3 REN=1 WEN=0 addr=0x3b843810 store=0x00000000 data=0xxxxxxxxx complete=x
UVM_INFO C:/Users/socce/SoCET/tensor-core/uvm/lfc_ram_passive_monitor.sv(71) @ 550000: uvm_test_top.env.ram_passive_agent.mon [RAM_MON] Captured bank=1 REN=1 WEN=0 addr=0x7ef438d0 store=0x00000000 data=0xxxxxxxxx complete=x
UVM_INFO C:/Users/socce/SoCET/tensor-core/uvm/lfc_ram_passive_monitor.sv(71) @ 550000: uvm_test_top.env.ram_passive_agent.mon [RAM_MON] Captured bank=2 REN=1 WEN=0 addr=0x3d74a8f0 store=0x00000000 data=0xxxxxxxxx complete=x
UVM_INFO C:/Users/socce/SoCET/tensor-core/uvm/lfc_ram_passive_monitor.sv(71) @ 550000: uvm_test_top.env.ram_passive_agent.mon [RAM_MON] Captured bank=3 REN=1 WEN=0 addr=0x3b843810 store=0x00000000 data=0xxxxxxxxx complete=x
UVM_INFO C:/Users/socce/SoCET/tensor-core/uvm/lfc_cpu_passive_monitor.sv(62) @ 550000: uvm_test_top.env.cpu_passive_agent.mon [CPU_PASSIVE_MON] Sampled: uuid=0 stall=1 hit=0 flushed=0
UVM_INFO D:/2025.1/Vivado/data/system_verilog/uvm_1.2/xlnx_uvm_package.sv(19968) @ 550000: reporter [TEST_DONE] 'run' phase is ready to proceed to the 'extract' phase
UVM_INFO @ 550000: uvm_test_top.env.lfc_scoreboard [Scoreboard] Matches:    8
UVM_INFO @ 550000: uvm_test_top.env.lfc_scoreboard [Scoreboard] Mismatches: 2
UVM_INFO D:/2025.1/Vivado/data/system_verilog/uvm_1.2/xlnx_uvm_package.sv(13673) @ 550000: reporter [UVM/REPORT/SERVER] 
--- UVM Report Summary ---

** Report counts by severity
UVM_INFO :   92
UVM_WARNING :    0
UVM_ERROR :    2
UVM_FATAL :    0
** Report counts by id
[CPU_MON]     1
[CPU_PASSIVE_MON]    38
[RAM_MON]    15
[RNTST]     1
[SCOREBOARD]    10
[Scoreboard]     2
[TEST_DONE]     1
[Test]     1
[UVM/COMP/NAMECHECK]     1
[UVM/RELNOTES]     1
[lfc_wr_sequence]    23

$finish called at time : 550 ns : File "D:/2025.1/Vivado/data/system_verilog/uvm_1.2/xlnx_uvm_package.sv" Line 18699
